%YAML 1.1
%TAG !u! tag:unity3d.com,2011:
--- !u!1 &5863523618984073887
GameObject:
  m_ObjectHideFlags: 0
  m_CorrespondingSourceObject: {fileID: 0}
  m_PrefabInstance: {fileID: 0}
  m_PrefabAsset: {fileID: 0}
  serializedVersion: 6
  m_Component:
  - component: {fileID: 9161791649975605824}
  m_Layer: 0
  m_Name: grail_original_prefab
  m_TagString: Untagged
  m_Icon: {fileID: 0}
  m_NavMeshLayer: 0
  m_StaticEditorFlags: 0
  m_IsActive: 1
--- !u!4 &9161791649975605824
Transform:
  m_ObjectHideFlags: 0
  m_CorrespondingSourceObject: {fileID: 0}
  m_PrefabInstance: {fileID: 0}
  m_PrefabAsset: {fileID: 0}
  m_GameObject: {fileID: 5863523618984073887}
  m_LocalRotation: {x: -0, y: -0, z: -0, w: 1}
  m_LocalPosition: {x: 0, y: 0, z: 0}
  m_LocalScale: {x: 1, y: 1, z: 1}
  m_Children:
  - {fileID: 6978070203697570809}
  m_Father: {fileID: 0}
  m_RootOrder: 0
  m_LocalEulerAnglesHint: {x: 0, y: 0, z: 0}
--- !u!208 &8108108171812922052
NavMeshObstacle:
  m_ObjectHideFlags: 0
  m_CorrespondingSourceObject: {fileID: 0}
  m_PrefabInstance: {fileID: 0}
  m_PrefabAsset: {fileID: 0}
  m_GameObject: {fileID: 6236443387717177834}
  m_Enabled: 1
  serializedVersion: 3
  m_Shape: 1
  m_Extents: {x: 0.028, y: 0.042000003, z: 0.027}
  m_MoveThreshold: 0.1
  m_Carve: 0
  m_CarveOnlyStationary: 1
  m_Center: {x: -0.007, y: -0.021000002, z: 0.0050000004}
  m_TimeToStationary: 0.5
--- !u!65 &7257367661355372257
BoxCollider:
  m_ObjectHideFlags: 0
  m_CorrespondingSourceObject: {fileID: 0}
  m_PrefabInstance: {fileID: 0}
  m_PrefabAsset: {fileID: 0}
  m_GameObject: {fileID: 6236443387717177834}
  m_Material: {fileID: 0}
  m_IsTrigger: 0
  m_Enabled: 1
  serializedVersion: 2
  m_Size: {x: 0.056630045, y: 0.08464659, z: 0.054935336}
  m_Center: {x: -0.007283222, y: -0.020622993, z: 0.0049681594}
--- !u!1001 &2715003371407280355
PrefabInstance:
  m_ObjectHideFlags: 0
  serializedVersion: 2
  m_Modification:
    m_TransformParent: {fileID: 9161791649975605824}
    m_Modifications:
    - target: {fileID: -927199367670048503, guid: 794ae3459a3a0194e93f56824d0f4505,
        type: 3}
      propertyPath: m_Name
      value: grail_original_model
      objectReference: {fileID: 0}
    - target: {fileID: -4216859302048453862, guid: 794ae3459a3a0194e93f56824d0f4505,
        type: 3}
      propertyPath: m_LocalPosition.x
      value: 0
      objectReference: {fileID: 0}
    - target: {fileID: -4216859302048453862, guid: 794ae3459a3a0194e93f56824d0f4505,
        type: 3}
      propertyPath: m_LocalPosition.y
      value: 0.56652
      objectReference: {fileID: 0}
    - target: {fileID: -4216859302048453862, guid: 794ae3459a3a0194e93f56824d0f4505,
        type: 3}
      propertyPath: m_LocalPosition.z
      value: 0
      objectReference: {fileID: 0}
    - target: {fileID: -4216859302048453862, guid: 794ae3459a3a0194e93f56824d0f4505,
        type: 3}
      propertyPath: m_LocalRotation.x
      value: -0
      objectReference: {fileID: 0}
    - target: {fileID: -4216859302048453862, guid: 794ae3459a3a0194e93f56824d0f4505,
        type: 3}
      propertyPath: m_LocalRotation.y
      value: -0
      objectReference: {fileID: 0}
    - target: {fileID: -4216859302048453862, guid: 794ae3459a3a0194e93f56824d0f4505,
        type: 3}
      propertyPath: m_LocalRotation.z
      value: -0
      objectReference: {fileID: 0}
    - target: {fileID: -4216859302048453862, guid: 794ae3459a3a0194e93f56824d0f4505,
        type: 3}
      propertyPath: m_LocalRotation.w
      value: 1
      objectReference: {fileID: 0}
    - target: {fileID: -4216859302048453862, guid: 794ae3459a3a0194e93f56824d0f4505,
        type: 3}
      propertyPath: m_RootOrder
      value: 0
      objectReference: {fileID: 0}
    - target: {fileID: -4216859302048453862, guid: 794ae3459a3a0194e93f56824d0f4505,
        type: 3}
      propertyPath: m_LocalEulerAnglesHint.x
      value: 0
      objectReference: {fileID: 0}
    - target: {fileID: -4216859302048453862, guid: 794ae3459a3a0194e93f56824d0f4505,
        type: 3}
      propertyPath: m_LocalEulerAnglesHint.y
      value: 0
      objectReference: {fileID: 0}
    - target: {fileID: -4216859302048453862, guid: 794ae3459a3a0194e93f56824d0f4505,
        type: 3}
      propertyPath: m_LocalEulerAnglesHint.z
      value: 0
      objectReference: {fileID: 0}
    - target: {fileID: -4216859302048453862, guid: 794ae3459a3a0194e93f56824d0f4505,
        type: 3}
      propertyPath: m_LocalScale.x
      value: 9
      objectReference: {fileID: 0}
    - target: {fileID: -4216859302048453862, guid: 794ae3459a3a0194e93f56824d0f4505,
        type: 3}
      propertyPath: m_LocalScale.y
      value: 9
      objectReference: {fileID: 0}
    - target: {fileID: -4216859302048453862, guid: 794ae3459a3a0194e93f56824d0f4505,
        type: 3}
      propertyPath: m_LocalScale.z
      value: 9
      objectReference: {fileID: 0}
    - target: {fileID: -1504981713932161579, guid: 794ae3459a3a0194e93f56824d0f4505,
        type: 3}
      propertyPath: m_Materials.Array.data[0]
      value: 
      objectReference: {fileID: 2100000, guid: 1f387632c064fc9489314ec7a6047706, type: 2}
    m_RemovedComponents: []
  m_SourcePrefab: {fileID: 100100000, guid: 794ae3459a3a0194e93f56824d0f4505, type: 3}
--- !u!1 &6236443387717177834 stripped
GameObject:
  m_CorrespondingSourceObject: {fileID: -927199367670048503, guid: 794ae3459a3a0194e93f56824d0f4505,
    type: 3}
  m_PrefabInstance: {fileID: 2715003371407280355}
  m_PrefabAsset: {fileID: 0}
--- !u!4 &6978070203697570809 stripped
Transform:
  m_CorrespondingSourceObject: {fileID: -4216859302048453862, guid: 794ae3459a3a0194e93f56824d0f4505,
    type: 3}
  m_PrefabInstance: {fileID: 2715003371407280355}
  m_PrefabAsset: {fileID: 0}
