%YAML 1.1
%TAG !u! tag:unity3d.com,2011:
--- !u!29 &1
OcclusionCullingSettings:
  m_ObjectHideFlags: 0
  serializedVersion: 2
  m_OcclusionBakeSettings:
    smallestOccluder: 5
    smallestHole: 0.25
    backfaceThreshold: 100
  m_SceneGUID: 00000000000000000000000000000000
  m_OcclusionCullingData: {fileID: 0}
--- !u!104 &2
RenderSettings:
  m_ObjectHideFlags: 0
  serializedVersion: 9
  m_Fog: 0
  m_FogColor: {r: 0.2264151, g: 0.2264151, b: 0.2264151, a: 1}
  m_FogMode: 1
  m_FogDensity: 0.01
  m_LinearFogStart: 0
  m_LinearFogEnd: 100
  m_AmbientSkyColor: {r: 0.085, g: 0.08875, b: 0.1, a: 1}
  m_AmbientEquatorColor: {r: 0.114, g: 0.125, b: 0.133, a: 1}
  m_AmbientGroundColor: {r: 0.047, g: 0.043, b: 0.035, a: 1}
  m_AmbientIntensity: 1
  m_AmbientMode: 0
  m_SubtractiveShadowColor: {r: 0.42, g: 0.478, b: 0.627, a: 1}
  m_SkyboxMaterial: {fileID: 0}
  m_HaloStrength: 0.5
  m_FlareStrength: 1
  m_FlareFadeSpeed: 3
  m_HaloTexture: {fileID: 0}
  m_SpotCookie: {fileID: 10001, guid: 0000000000000000e000000000000000, type: 0}
  m_DefaultReflectionMode: 0
  m_DefaultReflectionResolution: 128
  m_ReflectionBounces: 1
  m_ReflectionIntensity: 1
  m_CustomReflection: {fileID: 0}
  m_Sun: {fileID: 170076734}
  m_IndirectSpecularColor: {r: 0, g: 0, b: 0, a: 1}
  m_UseRadianceAmbientProbe: 0
--- !u!157 &3
LightmapSettings:
  m_ObjectHideFlags: 0
  serializedVersion: 11
  m_GIWorkflowMode: 0
  m_GISettings:
    serializedVersion: 2
    m_BounceScale: 1
    m_IndirectOutputScale: 1
    m_AlbedoBoost: 1
    m_EnvironmentLightingMode: 0
    m_EnableBakedLightmaps: 0
    m_EnableRealtimeLightmaps: 0
  m_LightmapEditorSettings:
    serializedVersion: 12
    m_Resolution: 2
    m_BakeResolution: 10
    m_AtlasSize: 512
    m_AO: 0
    m_AOMaxDistance: 1
    m_CompAOExponent: 1
    m_CompAOExponentDirect: 0
    m_ExtractAmbientOcclusion: 0
    m_Padding: 2
    m_LightmapParameters: {fileID: 0}
    m_LightmapsBakeMode: 1
    m_TextureCompression: 1
    m_FinalGather: 0
    m_FinalGatherFiltering: 1
    m_FinalGatherRayCount: 256
    m_ReflectionCompression: 2
    m_MixedBakeMode: 2
    m_BakeBackend: 1
    m_PVRSampling: 1
    m_PVRDirectSampleCount: 32
    m_PVRSampleCount: 256
    m_PVRBounces: 2
    m_PVREnvironmentSampleCount: 256
    m_PVREnvironmentReferencePointCount: 2048
    m_PVRFilteringMode: 2
    m_PVRDenoiserTypeDirect: 0
    m_PVRDenoiserTypeIndirect: 0
    m_PVRDenoiserTypeAO: 0
    m_PVRFilterTypeDirect: 0
    m_PVRFilterTypeIndirect: 0
    m_PVRFilterTypeAO: 0
    m_PVREnvironmentMIS: 0
    m_PVRCulling: 1
    m_PVRFilteringGaussRadiusDirect: 1
    m_PVRFilteringGaussRadiusIndirect: 5
    m_PVRFilteringGaussRadiusAO: 2
    m_PVRFilteringAtrousPositionSigmaDirect: 0.5
    m_PVRFilteringAtrousPositionSigmaIndirect: 2
    m_PVRFilteringAtrousPositionSigmaAO: 1
    m_ShowResolutionOverlay: 1
    m_ExportTrainingData: 0
  m_LightingDataAsset: {fileID: 0}
  m_UseShadowmask: 1
--- !u!196 &4
NavMeshSettings:
  serializedVersion: 2
  m_ObjectHideFlags: 0
  m_BuildSettings:
    serializedVersion: 2
    agentTypeID: 0
    agentRadius: 0.5
    agentHeight: 2
    agentSlope: 24.54
    agentClimb: 0.4
    ledgeDropHeight: 0
    maxJumpAcrossDistance: 0
    minRegionArea: 2
    manualCellSize: 0
    cellSize: 0.16666667
    manualTileSize: 0
    tileSize: 256
    accuratePlacement: 0
    debug:
      m_Flags: 0
  m_NavMeshData: {fileID: 0}
--- !u!1001 &39461909
PrefabInstance:
  m_ObjectHideFlags: 0
  serializedVersion: 2
  m_Modification:
    m_TransformParent: {fileID: 0}
    m_Modifications:
    - target: {fileID: 6609771579670514280, guid: b3f20792d51c68d448de405e64aee77b,
        type: 3}
      propertyPath: m_Name
      value: ObjectPooler
      objectReference: {fileID: 0}
    - target: {fileID: 6609771579670514281, guid: b3f20792d51c68d448de405e64aee77b,
        type: 3}
      propertyPath: m_LocalPosition.x
      value: 800
      objectReference: {fileID: 0}
    - target: {fileID: 6609771579670514281, guid: b3f20792d51c68d448de405e64aee77b,
        type: 3}
      propertyPath: m_LocalPosition.y
      value: 450
      objectReference: {fileID: 0}
    - target: {fileID: 6609771579670514281, guid: b3f20792d51c68d448de405e64aee77b,
        type: 3}
      propertyPath: m_LocalPosition.z
      value: 0
      objectReference: {fileID: 0}
    - target: {fileID: 6609771579670514281, guid: b3f20792d51c68d448de405e64aee77b,
        type: 3}
      propertyPath: m_LocalRotation.x
      value: 0
      objectReference: {fileID: 0}
    - target: {fileID: 6609771579670514281, guid: b3f20792d51c68d448de405e64aee77b,
        type: 3}
      propertyPath: m_LocalRotation.y
      value: 0
      objectReference: {fileID: 0}
    - target: {fileID: 6609771579670514281, guid: b3f20792d51c68d448de405e64aee77b,
        type: 3}
      propertyPath: m_LocalRotation.z
      value: 0
      objectReference: {fileID: 0}
    - target: {fileID: 6609771579670514281, guid: b3f20792d51c68d448de405e64aee77b,
        type: 3}
      propertyPath: m_LocalRotation.w
      value: 1
      objectReference: {fileID: 0}
    - target: {fileID: 6609771579670514281, guid: b3f20792d51c68d448de405e64aee77b,
        type: 3}
      propertyPath: m_RootOrder
      value: 8
      objectReference: {fileID: 0}
    - target: {fileID: 6609771579670514281, guid: b3f20792d51c68d448de405e64aee77b,
        type: 3}
      propertyPath: m_LocalEulerAnglesHint.x
      value: 0
      objectReference: {fileID: 0}
    - target: {fileID: 6609771579670514281, guid: b3f20792d51c68d448de405e64aee77b,
        type: 3}
      propertyPath: m_LocalEulerAnglesHint.y
      value: 0
      objectReference: {fileID: 0}
    - target: {fileID: 6609771579670514281, guid: b3f20792d51c68d448de405e64aee77b,
        type: 3}
      propertyPath: m_LocalEulerAnglesHint.z
      value: 0
      objectReference: {fileID: 0}
    - target: {fileID: 6609771579670514278, guid: b3f20792d51c68d448de405e64aee77b,
        type: 3}
      propertyPath: itemsToPool.Array.size
      value: 2
      objectReference: {fileID: 0}
    - target: {fileID: 6609771579670514278, guid: b3f20792d51c68d448de405e64aee77b,
        type: 3}
      propertyPath: itemsToPool.Array.data[0].objectToPool
      value: 
      objectReference: {fileID: 4408851911410021865, guid: a8ea4efb7f2d2da42bedb306c739de44,
        type: 3}
    - target: {fileID: 6609771579670514278, guid: b3f20792d51c68d448de405e64aee77b,
        type: 3}
      propertyPath: itemsToPool.Array.data[0].amountToPool
      value: 15
      objectReference: {fileID: 0}
    - target: {fileID: 6609771579670514278, guid: b3f20792d51c68d448de405e64aee77b,
        type: 3}
      propertyPath: itemsToPool.Array.data[0].shouldExpand
      value: 1
      objectReference: {fileID: 0}
    - target: {fileID: 6609771579670514278, guid: b3f20792d51c68d448de405e64aee77b,
        type: 3}
      propertyPath: itemsToPool.Array.data[1].amountToPool
      value: 20
      objectReference: {fileID: 0}
    - target: {fileID: 6609771579670514278, guid: b3f20792d51c68d448de405e64aee77b,
        type: 3}
      propertyPath: itemsToPool.Array.data[1].objectToPool
      value: 
      objectReference: {fileID: 2859862560765996474, guid: 50b30077c4de8da48afa535c59c68409,
        type: 3}
    - target: {fileID: 6609771579670514278, guid: b3f20792d51c68d448de405e64aee77b,
        type: 3}
      propertyPath: itemsToPool.Array.data[1].shouldExpand
      value: 1
      objectReference: {fileID: 0}
    m_RemovedComponents: []
  m_SourcePrefab: {fileID: 100100000, guid: b3f20792d51c68d448de405e64aee77b, type: 3}
--- !u!1 &170076733
GameObject:
  m_ObjectHideFlags: 0
  m_CorrespondingSourceObject: {fileID: 0}
  m_PrefabInstance: {fileID: 0}
  m_PrefabAsset: {fileID: 0}
  serializedVersion: 6
  m_Component:
  - component: {fileID: 170076735}
  - component: {fileID: 170076734}
  m_Layer: 0
  m_Name: Directional Light
  m_TagString: Untagged
  m_Icon: {fileID: 0}
  m_NavMeshLayer: 0
  m_StaticEditorFlags: 0
  m_IsActive: 1
--- !u!108 &170076734
Light:
  m_ObjectHideFlags: 0
  m_CorrespondingSourceObject: {fileID: 0}
  m_PrefabInstance: {fileID: 0}
  m_PrefabAsset: {fileID: 0}
  m_GameObject: {fileID: 170076733}
  m_Enabled: 1
  serializedVersion: 9
  m_Type: 1
  m_Color: {r: 0.22352941, g: 0.23921569, b: 0.24705882, a: 1}
  m_Intensity: 1
  m_Range: 10
  m_SpotAngle: 30
  m_InnerSpotAngle: 21.80208
  m_CookieSize: 10
  m_Shadows:
    m_Type: 0
    m_Resolution: -1
    m_CustomResolution: -1
    m_Strength: 1
    m_Bias: 0.05
    m_NormalBias: 0.4
    m_NearPlane: 0.2
    m_CullingMatrixOverride:
      e00: 1
      e01: 0
      e02: 0
      e03: 0
      e10: 0
      e11: 1
      e12: 0
      e13: 0
      e20: 0
      e21: 0
      e22: 1
      e23: 0
      e30: 0
      e31: 0
      e32: 0
      e33: 1
    m_UseCullingMatrixOverride: 0
  m_Cookie: {fileID: 0}
  m_DrawHalo: 0
  m_Flare: {fileID: 0}
  m_RenderMode: 0
  m_CullingMask:
    serializedVersion: 2
    m_Bits: 4294967295
  m_RenderingLayerMask: 1
  m_Lightmapping: 4
  m_LightShadowCasterMode: 0
  m_AreaSize: {x: 1, y: 1}
  m_BounceIntensity: 1
  m_ColorTemperature: 6570
  m_UseColorTemperature: 0
  m_BoundingSphereOverride: {x: 0, y: 0, z: 0, w: 0}
  m_UseBoundingSphereOverride: 0
  m_ShadowRadius: 0
  m_ShadowAngle: 0
--- !u!4 &170076735
Transform:
  m_ObjectHideFlags: 0
  m_CorrespondingSourceObject: {fileID: 0}
  m_PrefabInstance: {fileID: 0}
  m_PrefabAsset: {fileID: 0}
  m_GameObject: {fileID: 170076733}
  m_LocalRotation: {x: 0.40821788, y: -0.23456968, z: 0.10938163, w: 0.8754261}
  m_LocalPosition: {x: 0, y: 3, z: 0}
  m_LocalScale: {x: 1, y: 1, z: 1}
  m_Children: []
  m_Father: {fileID: 0}
  m_RootOrder: 0
  m_LocalEulerAnglesHint: {x: 50, y: -30, z: 0}
--- !u!1 &272665383
GameObject:
  m_ObjectHideFlags: 0
  m_CorrespondingSourceObject: {fileID: 0}
  m_PrefabInstance: {fileID: 0}
  m_PrefabAsset: {fileID: 0}
  serializedVersion: 6
  m_Component:
  - component: {fileID: 272665386}
  - component: {fileID: 272665385}
  - component: {fileID: 272665384}
  m_Layer: 0
  m_Name: EventSystem
  m_TagString: Untagged
  m_Icon: {fileID: 0}
  m_NavMeshLayer: 0
  m_StaticEditorFlags: 0
  m_IsActive: 1
--- !u!114 &272665384
MonoBehaviour:
  m_ObjectHideFlags: 0
  m_CorrespondingSourceObject: {fileID: 0}
  m_PrefabInstance: {fileID: 0}
  m_PrefabAsset: {fileID: 0}
  m_GameObject: {fileID: 272665383}
  m_Enabled: 1
  m_EditorHideFlags: 0
  m_Script: {fileID: 1077351063, guid: f70555f144d8491a825f0804e09c671c, type: 3}
  m_Name: 
  m_EditorClassIdentifier: 
  m_HorizontalAxis: Horizontal
  m_VerticalAxis: Vertical
  m_SubmitButton: Submit
  m_CancelButton: Cancel
  m_InputActionsPerSecond: 10
  m_RepeatDelay: 0.5
  m_ForceModuleActive: 0
--- !u!114 &272665385
MonoBehaviour:
  m_ObjectHideFlags: 0
  m_CorrespondingSourceObject: {fileID: 0}
  m_PrefabInstance: {fileID: 0}
  m_PrefabAsset: {fileID: 0}
  m_GameObject: {fileID: 272665383}
  m_Enabled: 1
  m_EditorHideFlags: 0
  m_Script: {fileID: -619905303, guid: f70555f144d8491a825f0804e09c671c, type: 3}
  m_Name: 
  m_EditorClassIdentifier: 
  m_FirstSelected: {fileID: 0}
  m_sendNavigationEvents: 1
  m_DragThreshold: 10
--- !u!4 &272665386
Transform:
  m_ObjectHideFlags: 0
  m_CorrespondingSourceObject: {fileID: 0}
  m_PrefabInstance: {fileID: 0}
  m_PrefabAsset: {fileID: 0}
  m_GameObject: {fileID: 272665383}
  m_LocalRotation: {x: 0, y: 0, z: 0, w: 1}
  m_LocalPosition: {x: 0, y: 0, z: 0}
  m_LocalScale: {x: 1, y: 1, z: 1}
  m_Children: []
  m_Father: {fileID: 0}
  m_RootOrder: 1
  m_LocalEulerAnglesHint: {x: 0, y: 0, z: 0}
--- !u!1 &474951264
GameObject:
  m_ObjectHideFlags: 0
  m_CorrespondingSourceObject: {fileID: 0}
  m_PrefabInstance: {fileID: 0}
  m_PrefabAsset: {fileID: 0}
  serializedVersion: 6
  m_Component:
  - component: {fileID: 474951265}
  m_Layer: 0
  m_Name: Rooms
  m_TagString: Untagged
  m_Icon: {fileID: 0}
  m_NavMeshLayer: 0
  m_StaticEditorFlags: 0
  m_IsActive: 0
--- !u!4 &474951265
Transform:
  m_ObjectHideFlags: 0
  m_CorrespondingSourceObject: {fileID: 0}
  m_PrefabInstance: {fileID: 0}
  m_PrefabAsset: {fileID: 0}
  m_GameObject: {fileID: 474951264}
  m_LocalRotation: {x: 0, y: 0, z: 0, w: 1}
  m_LocalPosition: {x: 0.72000694, y: 0.027939558, z: 2.4600172}
  m_LocalScale: {x: 1, y: 1, z: 1}
  m_Children:
  - {fileID: 1668653784}
  - {fileID: 918287057}
  - {fileID: 927458637}
  m_Father: {fileID: 0}
  m_RootOrder: 2
  m_LocalEulerAnglesHint: {x: 0, y: 0, z: 0}
--- !u!1001 &535211555
PrefabInstance:
  m_ObjectHideFlags: 0
  serializedVersion: 2
  m_Modification:
    m_TransformParent: {fileID: 0}
    m_Modifications:
    - target: {fileID: 382066632824859591, guid: 0461f11c596eab545b3ba383f1e6c9b8,
        type: 3}
      propertyPath: m_Name
      value: Rewired Input Manager
      objectReference: {fileID: 0}
    - target: {fileID: 382066632824859577, guid: 0461f11c596eab545b3ba383f1e6c9b8,
        type: 3}
      propertyPath: m_LocalPosition.x
      value: 0
      objectReference: {fileID: 0}
    - target: {fileID: 382066632824859577, guid: 0461f11c596eab545b3ba383f1e6c9b8,
        type: 3}
      propertyPath: m_LocalPosition.y
      value: 0
      objectReference: {fileID: 0}
    - target: {fileID: 382066632824859577, guid: 0461f11c596eab545b3ba383f1e6c9b8,
        type: 3}
      propertyPath: m_LocalPosition.z
      value: 0
      objectReference: {fileID: 0}
    - target: {fileID: 382066632824859577, guid: 0461f11c596eab545b3ba383f1e6c9b8,
        type: 3}
      propertyPath: m_LocalRotation.x
      value: 0
      objectReference: {fileID: 0}
    - target: {fileID: 382066632824859577, guid: 0461f11c596eab545b3ba383f1e6c9b8,
        type: 3}
      propertyPath: m_LocalRotation.y
      value: 0
      objectReference: {fileID: 0}
    - target: {fileID: 382066632824859577, guid: 0461f11c596eab545b3ba383f1e6c9b8,
        type: 3}
      propertyPath: m_LocalRotation.z
      value: 0
      objectReference: {fileID: 0}
    - target: {fileID: 382066632824859577, guid: 0461f11c596eab545b3ba383f1e6c9b8,
        type: 3}
      propertyPath: m_LocalRotation.w
      value: 1
      objectReference: {fileID: 0}
    - target: {fileID: 382066632824859577, guid: 0461f11c596eab545b3ba383f1e6c9b8,
        type: 3}
      propertyPath: m_RootOrder
      value: 6
      objectReference: {fileID: 0}
    - target: {fileID: 382066632824859577, guid: 0461f11c596eab545b3ba383f1e6c9b8,
        type: 3}
      propertyPath: m_LocalEulerAnglesHint.x
      value: 0
      objectReference: {fileID: 0}
    - target: {fileID: 382066632824859577, guid: 0461f11c596eab545b3ba383f1e6c9b8,
        type: 3}
      propertyPath: m_LocalEulerAnglesHint.y
      value: 0
      objectReference: {fileID: 0}
    - target: {fileID: 382066632824859577, guid: 0461f11c596eab545b3ba383f1e6c9b8,
        type: 3}
      propertyPath: m_LocalEulerAnglesHint.z
      value: 0
      objectReference: {fileID: 0}
    m_RemovedComponents: []
  m_SourcePrefab: {fileID: 100100000, guid: 0461f11c596eab545b3ba383f1e6c9b8, type: 3}
--- !u!1001 &639811880
PrefabInstance:
  m_ObjectHideFlags: 0
  serializedVersion: 2
  m_Modification:
    m_TransformParent: {fileID: 0}
    m_Modifications:
    - target: {fileID: 5437873390525972195, guid: ee7a6ee13b7df564bbde0958538e9367,
        type: 3}
      propertyPath: m_Name
      value: Loading
      objectReference: {fileID: 0}
    - target: {fileID: 5437873390525972199, guid: ee7a6ee13b7df564bbde0958538e9367,
        type: 3}
      propertyPath: m_LocalPosition.x
      value: 0
      objectReference: {fileID: 0}
    - target: {fileID: 5437873390525972199, guid: ee7a6ee13b7df564bbde0958538e9367,
        type: 3}
      propertyPath: m_LocalPosition.y
      value: 0
      objectReference: {fileID: 0}
    - target: {fileID: 5437873390525972199, guid: ee7a6ee13b7df564bbde0958538e9367,
        type: 3}
      propertyPath: m_LocalPosition.z
      value: 0
      objectReference: {fileID: 0}
    - target: {fileID: 5437873390525972199, guid: ee7a6ee13b7df564bbde0958538e9367,
        type: 3}
      propertyPath: m_LocalRotation.x
      value: 0
      objectReference: {fileID: 0}
    - target: {fileID: 5437873390525972199, guid: ee7a6ee13b7df564bbde0958538e9367,
        type: 3}
      propertyPath: m_LocalRotation.y
      value: 0
      objectReference: {fileID: 0}
    - target: {fileID: 5437873390525972199, guid: ee7a6ee13b7df564bbde0958538e9367,
        type: 3}
      propertyPath: m_LocalRotation.z
      value: 0
      objectReference: {fileID: 0}
    - target: {fileID: 5437873390525972199, guid: ee7a6ee13b7df564bbde0958538e9367,
        type: 3}
      propertyPath: m_LocalRotation.w
      value: 1
      objectReference: {fileID: 0}
    - target: {fileID: 5437873390525972199, guid: ee7a6ee13b7df564bbde0958538e9367,
        type: 3}
      propertyPath: m_RootOrder
      value: 4
      objectReference: {fileID: 0}
    - target: {fileID: 5437873390525972199, guid: ee7a6ee13b7df564bbde0958538e9367,
        type: 3}
      propertyPath: m_LocalEulerAnglesHint.x
      value: 0
      objectReference: {fileID: 0}
    - target: {fileID: 5437873390525972199, guid: ee7a6ee13b7df564bbde0958538e9367,
        type: 3}
      propertyPath: m_LocalEulerAnglesHint.y
      value: 0
      objectReference: {fileID: 0}
    - target: {fileID: 5437873390525972199, guid: ee7a6ee13b7df564bbde0958538e9367,
        type: 3}
      propertyPath: m_LocalEulerAnglesHint.z
      value: 0
      objectReference: {fileID: 0}
    - target: {fileID: 5437873390525972199, guid: ee7a6ee13b7df564bbde0958538e9367,
        type: 3}
      propertyPath: m_AnchoredPosition.x
      value: 0
      objectReference: {fileID: 0}
    - target: {fileID: 5437873390525972199, guid: ee7a6ee13b7df564bbde0958538e9367,
        type: 3}
      propertyPath: m_AnchoredPosition.y
      value: 0
      objectReference: {fileID: 0}
    - target: {fileID: 5437873390525972199, guid: ee7a6ee13b7df564bbde0958538e9367,
        type: 3}
      propertyPath: m_SizeDelta.x
      value: 0
      objectReference: {fileID: 0}
    - target: {fileID: 5437873390525972199, guid: ee7a6ee13b7df564bbde0958538e9367,
        type: 3}
      propertyPath: m_SizeDelta.y
      value: 0
      objectReference: {fileID: 0}
    - target: {fileID: 5437873390525972199, guid: ee7a6ee13b7df564bbde0958538e9367,
        type: 3}
      propertyPath: m_AnchorMin.x
      value: 0
      objectReference: {fileID: 0}
    - target: {fileID: 5437873390525972199, guid: ee7a6ee13b7df564bbde0958538e9367,
        type: 3}
      propertyPath: m_AnchorMin.y
      value: 0
      objectReference: {fileID: 0}
    - target: {fileID: 5437873390525972199, guid: ee7a6ee13b7df564bbde0958538e9367,
        type: 3}
      propertyPath: m_AnchorMax.x
      value: 0
      objectReference: {fileID: 0}
    - target: {fileID: 5437873390525972199, guid: ee7a6ee13b7df564bbde0958538e9367,
        type: 3}
      propertyPath: m_AnchorMax.y
      value: 0
      objectReference: {fileID: 0}
    - target: {fileID: 5437873390525972199, guid: ee7a6ee13b7df564bbde0958538e9367,
        type: 3}
      propertyPath: m_Pivot.x
      value: 0
      objectReference: {fileID: 0}
    - target: {fileID: 5437873390525972199, guid: ee7a6ee13b7df564bbde0958538e9367,
        type: 3}
      propertyPath: m_Pivot.y
      value: 0
      objectReference: {fileID: 0}
    m_RemovedComponents: []
  m_SourcePrefab: {fileID: 100100000, guid: ee7a6ee13b7df564bbde0958538e9367, type: 3}
--- !u!114 &639811881 stripped
MonoBehaviour:
  m_CorrespondingSourceObject: {fileID: 8874213206567652482, guid: ee7a6ee13b7df564bbde0958538e9367,
    type: 3}
  m_PrefabInstance: {fileID: 639811880}
  m_PrefabAsset: {fileID: 0}
  m_GameObject: {fileID: 0}
  m_Enabled: 1
  m_EditorHideFlags: 0
  m_Script: {fileID: -98529514, guid: f70555f144d8491a825f0804e09c671c, type: 3}
  m_Name: 
  m_EditorClassIdentifier: 
--- !u!1001 &918287056
PrefabInstance:
  m_ObjectHideFlags: 0
  serializedVersion: 2
  m_Modification:
    m_TransformParent: {fileID: 474951265}
    m_Modifications:
    - target: {fileID: 2973865466745872640, guid: 6d6c65feec83eb542ae9660e70f4e062,
        type: 3}
      propertyPath: m_Name
      value: room_stone_end
      objectReference: {fileID: 0}
    - target: {fileID: 2973865466745872641, guid: 6d6c65feec83eb542ae9660e70f4e062,
        type: 3}
      propertyPath: m_LocalPosition.x
      value: 0
      objectReference: {fileID: 0}
    - target: {fileID: 2973865466745872641, guid: 6d6c65feec83eb542ae9660e70f4e062,
        type: 3}
      propertyPath: m_LocalPosition.y
      value: 0
      objectReference: {fileID: 0}
    - target: {fileID: 2973865466745872641, guid: 6d6c65feec83eb542ae9660e70f4e062,
        type: 3}
      propertyPath: m_LocalPosition.z
      value: 0
      objectReference: {fileID: 0}
    - target: {fileID: 2973865466745872641, guid: 6d6c65feec83eb542ae9660e70f4e062,
        type: 3}
      propertyPath: m_LocalRotation.x
      value: 0
      objectReference: {fileID: 0}
    - target: {fileID: 2973865466745872641, guid: 6d6c65feec83eb542ae9660e70f4e062,
        type: 3}
      propertyPath: m_LocalRotation.y
      value: 0
      objectReference: {fileID: 0}
    - target: {fileID: 2973865466745872641, guid: 6d6c65feec83eb542ae9660e70f4e062,
        type: 3}
      propertyPath: m_LocalRotation.z
      value: 0
      objectReference: {fileID: 0}
    - target: {fileID: 2973865466745872641, guid: 6d6c65feec83eb542ae9660e70f4e062,
        type: 3}
      propertyPath: m_LocalRotation.w
      value: 1
      objectReference: {fileID: 0}
    - target: {fileID: 2973865466745872641, guid: 6d6c65feec83eb542ae9660e70f4e062,
        type: 3}
      propertyPath: m_RootOrder
      value: 1
      objectReference: {fileID: 0}
    - target: {fileID: 2973865466745872641, guid: 6d6c65feec83eb542ae9660e70f4e062,
        type: 3}
      propertyPath: m_LocalEulerAnglesHint.x
      value: 0
      objectReference: {fileID: 0}
    - target: {fileID: 2973865466745872641, guid: 6d6c65feec83eb542ae9660e70f4e062,
        type: 3}
      propertyPath: m_LocalEulerAnglesHint.y
      value: 0
      objectReference: {fileID: 0}
    - target: {fileID: 2973865466745872641, guid: 6d6c65feec83eb542ae9660e70f4e062,
        type: 3}
      propertyPath: m_LocalEulerAnglesHint.z
      value: 0
      objectReference: {fileID: 0}
    m_RemovedComponents: []
  m_SourcePrefab: {fileID: 100100000, guid: 6d6c65feec83eb542ae9660e70f4e062, type: 3}
--- !u!4 &918287057 stripped
Transform:
  m_CorrespondingSourceObject: {fileID: 2973865466745872641, guid: 6d6c65feec83eb542ae9660e70f4e062,
    type: 3}
  m_PrefabInstance: {fileID: 918287056}
  m_PrefabAsset: {fileID: 0}
--- !u!114 &918287058 stripped
MonoBehaviour:
  m_CorrespondingSourceObject: {fileID: 3056422212444639150, guid: 6d6c65feec83eb542ae9660e70f4e062,
    type: 3}
  m_PrefabInstance: {fileID: 918287056}
  m_PrefabAsset: {fileID: 0}
  m_GameObject: {fileID: 0}
  m_Enabled: 1
  m_EditorHideFlags: 0
  m_Script: {fileID: 11500000, guid: 7a5ac11cc976e418e8d13136b07e1f52, type: 3}
  m_Name: 
  m_EditorClassIdentifier: 
--- !u!1001 &927458636
PrefabInstance:
  m_ObjectHideFlags: 0
  serializedVersion: 2
  m_Modification:
    m_TransformParent: {fileID: 474951265}
    m_Modifications:
    - target: {fileID: 2973865466745872640, guid: b2a85141aa774f74b8ad6f56858ae966,
        type: 3}
      propertyPath: m_Name
      value: room_stone_start
      objectReference: {fileID: 0}
    - target: {fileID: 2973865466745872641, guid: b2a85141aa774f74b8ad6f56858ae966,
        type: 3}
      propertyPath: m_LocalPosition.x
      value: 0
      objectReference: {fileID: 0}
    - target: {fileID: 2973865466745872641, guid: b2a85141aa774f74b8ad6f56858ae966,
        type: 3}
      propertyPath: m_LocalPosition.y
      value: 0
      objectReference: {fileID: 0}
    - target: {fileID: 2973865466745872641, guid: b2a85141aa774f74b8ad6f56858ae966,
        type: 3}
      propertyPath: m_LocalPosition.z
      value: 0
      objectReference: {fileID: 0}
    - target: {fileID: 2973865466745872641, guid: b2a85141aa774f74b8ad6f56858ae966,
        type: 3}
      propertyPath: m_LocalRotation.x
      value: 0
      objectReference: {fileID: 0}
    - target: {fileID: 2973865466745872641, guid: b2a85141aa774f74b8ad6f56858ae966,
        type: 3}
      propertyPath: m_LocalRotation.y
      value: 0
      objectReference: {fileID: 0}
    - target: {fileID: 2973865466745872641, guid: b2a85141aa774f74b8ad6f56858ae966,
        type: 3}
      propertyPath: m_LocalRotation.z
      value: 0
      objectReference: {fileID: 0}
    - target: {fileID: 2973865466745872641, guid: b2a85141aa774f74b8ad6f56858ae966,
        type: 3}
      propertyPath: m_LocalRotation.w
      value: 1
      objectReference: {fileID: 0}
    - target: {fileID: 2973865466745872641, guid: b2a85141aa774f74b8ad6f56858ae966,
        type: 3}
      propertyPath: m_RootOrder
      value: 2
      objectReference: {fileID: 0}
    - target: {fileID: 2973865466745872641, guid: b2a85141aa774f74b8ad6f56858ae966,
        type: 3}
      propertyPath: m_LocalEulerAnglesHint.x
      value: 0
      objectReference: {fileID: 0}
    - target: {fileID: 2973865466745872641, guid: b2a85141aa774f74b8ad6f56858ae966,
        type: 3}
      propertyPath: m_LocalEulerAnglesHint.y
      value: 0
      objectReference: {fileID: 0}
    - target: {fileID: 2973865466745872641, guid: b2a85141aa774f74b8ad6f56858ae966,
        type: 3}
      propertyPath: m_LocalEulerAnglesHint.z
      value: 0
      objectReference: {fileID: 0}
    m_RemovedComponents: []
  m_SourcePrefab: {fileID: 100100000, guid: b2a85141aa774f74b8ad6f56858ae966, type: 3}
--- !u!4 &927458637 stripped
Transform:
  m_CorrespondingSourceObject: {fileID: 2973865466745872641, guid: b2a85141aa774f74b8ad6f56858ae966,
    type: 3}
  m_PrefabInstance: {fileID: 927458636}
  m_PrefabAsset: {fileID: 0}
--- !u!1001 &1668653783
PrefabInstance:
  m_ObjectHideFlags: 0
  serializedVersion: 2
  m_Modification:
    m_TransformParent: {fileID: 474951265}
    m_Modifications:
    - target: {fileID: 2973865466745872640, guid: c08e1f7a18accf54caa7dfb412aa8c6a,
        type: 3}
      propertyPath: m_Name
      value: room_stone_corridor01
      objectReference: {fileID: 0}
    - target: {fileID: 2973865466745872641, guid: c08e1f7a18accf54caa7dfb412aa8c6a,
        type: 3}
      propertyPath: m_LocalPosition.x
      value: 0
      objectReference: {fileID: 0}
    - target: {fileID: 2973865466745872641, guid: c08e1f7a18accf54caa7dfb412aa8c6a,
        type: 3}
      propertyPath: m_LocalPosition.y
      value: 0
      objectReference: {fileID: 0}
    - target: {fileID: 2973865466745872641, guid: c08e1f7a18accf54caa7dfb412aa8c6a,
        type: 3}
      propertyPath: m_LocalPosition.z
      value: 0
      objectReference: {fileID: 0}
    - target: {fileID: 2973865466745872641, guid: c08e1f7a18accf54caa7dfb412aa8c6a,
        type: 3}
      propertyPath: m_LocalRotation.x
      value: 0
      objectReference: {fileID: 0}
    - target: {fileID: 2973865466745872641, guid: c08e1f7a18accf54caa7dfb412aa8c6a,
        type: 3}
      propertyPath: m_LocalRotation.y
      value: 0
      objectReference: {fileID: 0}
    - target: {fileID: 2973865466745872641, guid: c08e1f7a18accf54caa7dfb412aa8c6a,
        type: 3}
      propertyPath: m_LocalRotation.z
      value: 0
      objectReference: {fileID: 0}
    - target: {fileID: 2973865466745872641, guid: c08e1f7a18accf54caa7dfb412aa8c6a,
        type: 3}
      propertyPath: m_LocalRotation.w
      value: 1
      objectReference: {fileID: 0}
    - target: {fileID: 2973865466745872641, guid: c08e1f7a18accf54caa7dfb412aa8c6a,
        type: 3}
      propertyPath: m_RootOrder
      value: 0
      objectReference: {fileID: 0}
    - target: {fileID: 2973865466745872641, guid: c08e1f7a18accf54caa7dfb412aa8c6a,
        type: 3}
      propertyPath: m_LocalEulerAnglesHint.x
      value: 0
      objectReference: {fileID: 0}
    - target: {fileID: 2973865466745872641, guid: c08e1f7a18accf54caa7dfb412aa8c6a,
        type: 3}
      propertyPath: m_LocalEulerAnglesHint.y
      value: 0
      objectReference: {fileID: 0}
    - target: {fileID: 2973865466745872641, guid: c08e1f7a18accf54caa7dfb412aa8c6a,
        type: 3}
      propertyPath: m_LocalEulerAnglesHint.z
      value: 0
      objectReference: {fileID: 0}
    m_RemovedComponents: []
  m_SourcePrefab: {fileID: 100100000, guid: c08e1f7a18accf54caa7dfb412aa8c6a, type: 3}
--- !u!4 &1668653784 stripped
Transform:
  m_CorrespondingSourceObject: {fileID: 2973865466745872641, guid: c08e1f7a18accf54caa7dfb412aa8c6a,
    type: 3}
  m_PrefabInstance: {fileID: 1668653783}
  m_PrefabAsset: {fileID: 0}
--- !u!114 &1668653785 stripped
MonoBehaviour:
  m_CorrespondingSourceObject: {fileID: 3675848162224780257, guid: c08e1f7a18accf54caa7dfb412aa8c6a,
    type: 3}
  m_PrefabInstance: {fileID: 1668653783}
  m_PrefabAsset: {fileID: 0}
  m_GameObject: {fileID: 0}
  m_Enabled: 1
  m_EditorHideFlags: 0
  m_Script: {fileID: 11500000, guid: 7a5ac11cc976e418e8d13136b07e1f52, type: 3}
  m_Name: 
  m_EditorClassIdentifier: 
--- !u!1001 &2535053059609085695
PrefabInstance:
  m_ObjectHideFlags: 0
  serializedVersion: 2
  m_Modification:
    m_TransformParent: {fileID: 0}
    m_Modifications:
    - target: {fileID: 2535053060192426021, guid: 6fc136c9f7bf77b4084336d3ddaf45a8,
        type: 3}
      propertyPath: m_Name
      value: FloatingTextCanvas
      objectReference: {fileID: 0}
    - target: {fileID: 2535053060192426017, guid: 6fc136c9f7bf77b4084336d3ddaf45a8,
        type: 3}
      propertyPath: m_LocalPosition.x
      value: 0
      objectReference: {fileID: 0}
    - target: {fileID: 2535053060192426017, guid: 6fc136c9f7bf77b4084336d3ddaf45a8,
        type: 3}
      propertyPath: m_LocalPosition.y
      value: 0
      objectReference: {fileID: 0}
    - target: {fileID: 2535053060192426017, guid: 6fc136c9f7bf77b4084336d3ddaf45a8,
        type: 3}
      propertyPath: m_LocalPosition.z
      value: 0
      objectReference: {fileID: 0}
    - target: {fileID: 2535053060192426017, guid: 6fc136c9f7bf77b4084336d3ddaf45a8,
        type: 3}
      propertyPath: m_LocalRotation.x
      value: 0
      objectReference: {fileID: 0}
    - target: {fileID: 2535053060192426017, guid: 6fc136c9f7bf77b4084336d3ddaf45a8,
        type: 3}
      propertyPath: m_LocalRotation.y
      value: 0
      objectReference: {fileID: 0}
    - target: {fileID: 2535053060192426017, guid: 6fc136c9f7bf77b4084336d3ddaf45a8,
        type: 3}
      propertyPath: m_LocalRotation.z
      value: 0
      objectReference: {fileID: 0}
    - target: {fileID: 2535053060192426017, guid: 6fc136c9f7bf77b4084336d3ddaf45a8,
        type: 3}
      propertyPath: m_LocalRotation.w
      value: 1
      objectReference: {fileID: 0}
    - target: {fileID: 2535053060192426017, guid: 6fc136c9f7bf77b4084336d3ddaf45a8,
        type: 3}
      propertyPath: m_RootOrder
      value: 9
      objectReference: {fileID: 0}
    - target: {fileID: 2535053060192426017, guid: 6fc136c9f7bf77b4084336d3ddaf45a8,
        type: 3}
      propertyPath: m_LocalEulerAnglesHint.x
      value: 0
      objectReference: {fileID: 0}
    - target: {fileID: 2535053060192426017, guid: 6fc136c9f7bf77b4084336d3ddaf45a8,
        type: 3}
      propertyPath: m_LocalEulerAnglesHint.y
      value: 0
      objectReference: {fileID: 0}
    - target: {fileID: 2535053060192426017, guid: 6fc136c9f7bf77b4084336d3ddaf45a8,
        type: 3}
      propertyPath: m_LocalEulerAnglesHint.z
      value: 0
      objectReference: {fileID: 0}
    - target: {fileID: 2535053060192426017, guid: 6fc136c9f7bf77b4084336d3ddaf45a8,
        type: 3}
      propertyPath: m_AnchoredPosition.x
      value: 0
      objectReference: {fileID: 0}
    - target: {fileID: 2535053060192426017, guid: 6fc136c9f7bf77b4084336d3ddaf45a8,
        type: 3}
      propertyPath: m_AnchoredPosition.y
      value: 0
      objectReference: {fileID: 0}
    - target: {fileID: 2535053060192426017, guid: 6fc136c9f7bf77b4084336d3ddaf45a8,
        type: 3}
      propertyPath: m_SizeDelta.x
      value: 0
      objectReference: {fileID: 0}
    - target: {fileID: 2535053060192426017, guid: 6fc136c9f7bf77b4084336d3ddaf45a8,
        type: 3}
      propertyPath: m_SizeDelta.y
      value: 0
      objectReference: {fileID: 0}
    - target: {fileID: 2535053060192426017, guid: 6fc136c9f7bf77b4084336d3ddaf45a8,
        type: 3}
      propertyPath: m_AnchorMin.x
      value: 0
      objectReference: {fileID: 0}
    - target: {fileID: 2535053060192426017, guid: 6fc136c9f7bf77b4084336d3ddaf45a8,
        type: 3}
      propertyPath: m_AnchorMin.y
      value: 0
      objectReference: {fileID: 0}
    - target: {fileID: 2535053060192426017, guid: 6fc136c9f7bf77b4084336d3ddaf45a8,
        type: 3}
      propertyPath: m_AnchorMax.x
      value: 0
      objectReference: {fileID: 0}
    - target: {fileID: 2535053060192426017, guid: 6fc136c9f7bf77b4084336d3ddaf45a8,
        type: 3}
      propertyPath: m_AnchorMax.y
      value: 0
      objectReference: {fileID: 0}
    - target: {fileID: 2535053060192426017, guid: 6fc136c9f7bf77b4084336d3ddaf45a8,
        type: 3}
      propertyPath: m_Pivot.x
      value: 0
      objectReference: {fileID: 0}
    - target: {fileID: 2535053060192426017, guid: 6fc136c9f7bf77b4084336d3ddaf45a8,
        type: 3}
      propertyPath: m_Pivot.y
      value: 0
      objectReference: {fileID: 0}
    m_RemovedComponents: []
  m_SourcePrefab: {fileID: 100100000, guid: 6fc136c9f7bf77b4084336d3ddaf45a8, type: 3}
--- !u!1001 &3269249540607646359
PrefabInstance:
  m_ObjectHideFlags: 0
  serializedVersion: 2
  m_Modification:
    m_TransformParent: {fileID: 0}
    m_Modifications:
    - target: {fileID: 3269249539612289890, guid: 0492d7dedce8d004f8a7e8fed35a9ae5,
        type: 3}
      propertyPath: m_Name
      value: SoundController
      objectReference: {fileID: 0}
    - target: {fileID: 3269249539612289903, guid: 0492d7dedce8d004f8a7e8fed35a9ae5,
        type: 3}
      propertyPath: m_LocalPosition.x
      value: 26.369677
      objectReference: {fileID: 0}
    - target: {fileID: 3269249539612289903, guid: 0492d7dedce8d004f8a7e8fed35a9ae5,
        type: 3}
      propertyPath: m_LocalPosition.y
      value: 0.9487804
      objectReference: {fileID: 0}
    - target: {fileID: 3269249539612289903, guid: 0492d7dedce8d004f8a7e8fed35a9ae5,
        type: 3}
      propertyPath: m_LocalPosition.z
      value: -1.0693309
      objectReference: {fileID: 0}
    - target: {fileID: 3269249539612289903, guid: 0492d7dedce8d004f8a7e8fed35a9ae5,
        type: 3}
      propertyPath: m_LocalRotation.x
      value: 0
      objectReference: {fileID: 0}
    - target: {fileID: 3269249539612289903, guid: 0492d7dedce8d004f8a7e8fed35a9ae5,
        type: 3}
      propertyPath: m_LocalRotation.y
      value: 0
      objectReference: {fileID: 0}
    - target: {fileID: 3269249539612289903, guid: 0492d7dedce8d004f8a7e8fed35a9ae5,
        type: 3}
      propertyPath: m_LocalRotation.z
      value: 0
      objectReference: {fileID: 0}
    - target: {fileID: 3269249539612289903, guid: 0492d7dedce8d004f8a7e8fed35a9ae5,
        type: 3}
      propertyPath: m_LocalRotation.w
      value: 1
      objectReference: {fileID: 0}
    - target: {fileID: 3269249539612289903, guid: 0492d7dedce8d004f8a7e8fed35a9ae5,
        type: 3}
      propertyPath: m_RootOrder
      value: 5
      objectReference: {fileID: 0}
    - target: {fileID: 3269249539612289903, guid: 0492d7dedce8d004f8a7e8fed35a9ae5,
        type: 3}
      propertyPath: m_LocalEulerAnglesHint.x
      value: 0
      objectReference: {fileID: 0}
    - target: {fileID: 3269249539612289903, guid: 0492d7dedce8d004f8a7e8fed35a9ae5,
        type: 3}
      propertyPath: m_LocalEulerAnglesHint.y
      value: 0
      objectReference: {fileID: 0}
    - target: {fileID: 3269249539612289903, guid: 0492d7dedce8d004f8a7e8fed35a9ae5,
        type: 3}
      propertyPath: m_LocalEulerAnglesHint.z
      value: 0
      objectReference: {fileID: 0}
    m_RemovedComponents: []
  m_SourcePrefab: {fileID: 100100000, guid: 0492d7dedce8d004f8a7e8fed35a9ae5, type: 3}
--- !u!1001 &4145456182669287070
PrefabInstance:
  m_ObjectHideFlags: 0
  serializedVersion: 2
  m_Modification:
    m_TransformParent: {fileID: 0}
    m_Modifications:
    - target: {fileID: 4145456181750752218, guid: 0e2f956bb0fa4e94da84c53891f5eb90,
        type: 3}
      propertyPath: m_Name
      value: Minimap
      objectReference: {fileID: 0}
    - target: {fileID: 4145456181750752214, guid: 0e2f956bb0fa4e94da84c53891f5eb90,
        type: 3}
      propertyPath: m_LocalPosition.x
      value: 0
      objectReference: {fileID: 0}
    - target: {fileID: 4145456181750752214, guid: 0e2f956bb0fa4e94da84c53891f5eb90,
        type: 3}
      propertyPath: m_LocalPosition.y
      value: 0
      objectReference: {fileID: 0}
    - target: {fileID: 4145456181750752214, guid: 0e2f956bb0fa4e94da84c53891f5eb90,
        type: 3}
      propertyPath: m_LocalPosition.z
      value: 0
      objectReference: {fileID: 0}
    - target: {fileID: 4145456181750752214, guid: 0e2f956bb0fa4e94da84c53891f5eb90,
        type: 3}
      propertyPath: m_LocalRotation.x
      value: 0
      objectReference: {fileID: 0}
    - target: {fileID: 4145456181750752214, guid: 0e2f956bb0fa4e94da84c53891f5eb90,
        type: 3}
      propertyPath: m_LocalRotation.y
      value: 0
      objectReference: {fileID: 0}
    - target: {fileID: 4145456181750752214, guid: 0e2f956bb0fa4e94da84c53891f5eb90,
        type: 3}
      propertyPath: m_LocalRotation.z
      value: 0
      objectReference: {fileID: 0}
    - target: {fileID: 4145456181750752214, guid: 0e2f956bb0fa4e94da84c53891f5eb90,
        type: 3}
      propertyPath: m_LocalRotation.w
      value: 1
      objectReference: {fileID: 0}
    - target: {fileID: 4145456181750752214, guid: 0e2f956bb0fa4e94da84c53891f5eb90,
        type: 3}
      propertyPath: m_RootOrder
      value: 7
      objectReference: {fileID: 0}
    - target: {fileID: 4145456181750752214, guid: 0e2f956bb0fa4e94da84c53891f5eb90,
        type: 3}
      propertyPath: m_LocalEulerAnglesHint.x
      value: 0
      objectReference: {fileID: 0}
    - target: {fileID: 4145456181750752214, guid: 0e2f956bb0fa4e94da84c53891f5eb90,
        type: 3}
      propertyPath: m_LocalEulerAnglesHint.y
      value: 0
      objectReference: {fileID: 0}
    - target: {fileID: 4145456181750752214, guid: 0e2f956bb0fa4e94da84c53891f5eb90,
        type: 3}
      propertyPath: m_LocalEulerAnglesHint.z
      value: 0
      objectReference: {fileID: 0}
    - target: {fileID: 4145456181750752214, guid: 0e2f956bb0fa4e94da84c53891f5eb90,
        type: 3}
      propertyPath: m_AnchoredPosition.x
      value: 0
      objectReference: {fileID: 0}
    - target: {fileID: 4145456181750752214, guid: 0e2f956bb0fa4e94da84c53891f5eb90,
        type: 3}
      propertyPath: m_AnchoredPosition.y
      value: 0
      objectReference: {fileID: 0}
    - target: {fileID: 4145456181750752214, guid: 0e2f956bb0fa4e94da84c53891f5eb90,
        type: 3}
      propertyPath: m_SizeDelta.x
      value: 0
      objectReference: {fileID: 0}
    - target: {fileID: 4145456181750752214, guid: 0e2f956bb0fa4e94da84c53891f5eb90,
        type: 3}
      propertyPath: m_SizeDelta.y
      value: 0
      objectReference: {fileID: 0}
    - target: {fileID: 4145456181750752214, guid: 0e2f956bb0fa4e94da84c53891f5eb90,
        type: 3}
      propertyPath: m_AnchorMin.x
      value: 0
      objectReference: {fileID: 0}
    - target: {fileID: 4145456181750752214, guid: 0e2f956bb0fa4e94da84c53891f5eb90,
        type: 3}
      propertyPath: m_AnchorMin.y
      value: 0
      objectReference: {fileID: 0}
    - target: {fileID: 4145456181750752214, guid: 0e2f956bb0fa4e94da84c53891f5eb90,
        type: 3}
      propertyPath: m_AnchorMax.x
      value: 0
      objectReference: {fileID: 0}
    - target: {fileID: 4145456181750752214, guid: 0e2f956bb0fa4e94da84c53891f5eb90,
        type: 3}
      propertyPath: m_AnchorMax.y
      value: 0
      objectReference: {fileID: 0}
    - target: {fileID: 4145456181750752214, guid: 0e2f956bb0fa4e94da84c53891f5eb90,
        type: 3}
      propertyPath: m_Pivot.x
      value: 0
      objectReference: {fileID: 0}
    - target: {fileID: 4145456181750752214, guid: 0e2f956bb0fa4e94da84c53891f5eb90,
        type: 3}
      propertyPath: m_Pivot.y
      value: 0
      objectReference: {fileID: 0}
    - target: {fileID: 4145456183583301713, guid: 0e2f956bb0fa4e94da84c53891f5eb90,
        type: 3}
      propertyPath: m_AnchoredPosition.x
      value: 650
      objectReference: {fileID: 0}
    - target: {fileID: 4145456183583301713, guid: 0e2f956bb0fa4e94da84c53891f5eb90,
        type: 3}
      propertyPath: m_AnchoredPosition.y
      value: 304
      objectReference: {fileID: 0}
    - target: {fileID: 4145456183583301713, guid: 0e2f956bb0fa4e94da84c53891f5eb90,
        type: 3}
      propertyPath: m_LocalScale.x
      value: 2.3339
      objectReference: {fileID: 0}
    - target: {fileID: 4145456183583301713, guid: 0e2f956bb0fa4e94da84c53891f5eb90,
        type: 3}
      propertyPath: m_LocalScale.y
      value: 2.3339
      objectReference: {fileID: 0}
    - target: {fileID: 4145456183583301713, guid: 0e2f956bb0fa4e94da84c53891f5eb90,
        type: 3}
      propertyPath: m_LocalScale.z
      value: 2.3339
      objectReference: {fileID: 0}
    m_RemovedComponents: []
  m_SourcePrefab: {fileID: 100100000, guid: 0e2f956bb0fa4e94da84c53891f5eb90, type: 3}
--- !u!1001 &4370443846230346832
PrefabInstance:
  m_ObjectHideFlags: 0
  serializedVersion: 2
  m_Modification:
    m_TransformParent: {fileID: 0}
    m_Modifications:
    - target: {fileID: 4370443846627987170, guid: 6f8f9ff04a67a4e45a68b41260f70166,
        type: 3}
      propertyPath: m_Name
      value: StoneLevelBuilder
      objectReference: {fileID: 0}
    - target: {fileID: 4370443846627987172, guid: 6f8f9ff04a67a4e45a68b41260f70166,
        type: 3}
      propertyPath: m_LocalPosition.x
      value: 0
      objectReference: {fileID: 0}
    - target: {fileID: 4370443846627987172, guid: 6f8f9ff04a67a4e45a68b41260f70166,
        type: 3}
      propertyPath: m_LocalPosition.y
      value: 8
      objectReference: {fileID: 0}
    - target: {fileID: 4370443846627987172, guid: 6f8f9ff04a67a4e45a68b41260f70166,
        type: 3}
      propertyPath: m_LocalPosition.z
      value: 0
      objectReference: {fileID: 0}
    - target: {fileID: 4370443846627987172, guid: 6f8f9ff04a67a4e45a68b41260f70166,
        type: 3}
      propertyPath: m_LocalRotation.x
      value: 0
      objectReference: {fileID: 0}
    - target: {fileID: 4370443846627987172, guid: 6f8f9ff04a67a4e45a68b41260f70166,
        type: 3}
      propertyPath: m_LocalRotation.y
      value: 0
      objectReference: {fileID: 0}
    - target: {fileID: 4370443846627987172, guid: 6f8f9ff04a67a4e45a68b41260f70166,
        type: 3}
      propertyPath: m_LocalRotation.z
      value: 0
      objectReference: {fileID: 0}
    - target: {fileID: 4370443846627987172, guid: 6f8f9ff04a67a4e45a68b41260f70166,
        type: 3}
      propertyPath: m_LocalRotation.w
      value: 1
      objectReference: {fileID: 0}
    - target: {fileID: 4370443846627987172, guid: 6f8f9ff04a67a4e45a68b41260f70166,
        type: 3}
      propertyPath: m_RootOrder
      value: 3
      objectReference: {fileID: 0}
    - target: {fileID: 4370443846627987172, guid: 6f8f9ff04a67a4e45a68b41260f70166,
        type: 3}
      propertyPath: m_LocalEulerAnglesHint.x
      value: 0
      objectReference: {fileID: 0}
    - target: {fileID: 4370443846627987172, guid: 6f8f9ff04a67a4e45a68b41260f70166,
        type: 3}
      propertyPath: m_LocalEulerAnglesHint.y
      value: 0
      objectReference: {fileID: 0}
    - target: {fileID: 4370443846627987172, guid: 6f8f9ff04a67a4e45a68b41260f70166,
        type: 3}
      propertyPath: m_LocalEulerAnglesHint.z
      value: 0
      objectReference: {fileID: 0}
    - target: {fileID: 4370443846627987171, guid: 6f8f9ff04a67a4e45a68b41260f70166,
        type: 3}
      propertyPath: loading
      value: 
      objectReference: {fileID: 639811881}
    - target: {fileID: 4370443846627987171, guid: 6f8f9ff04a67a4e45a68b41260f70166,
        type: 3}
      propertyPath: surfaces.Array.data[0]
      value: 
      objectReference: {fileID: 918287058}
    - target: {fileID: 4370443846627987171, guid: 6f8f9ff04a67a4e45a68b41260f70166,
        type: 3}
      propertyPath: surfaces.Array.data[1]
      value: 
      objectReference: {fileID: 1668653785}
    m_RemovedComponents: []
  m_SourcePrefab: {fileID: 100100000, guid: 6f8f9ff04a67a4e45a68b41260f70166, type: 3}
