%YAML 1.1
%TAG !u! tag:unity3d.com,2011:
--- !u!319 &31900000
AvatarMask:
  m_ObjectHideFlags: 0
  m_CorrespondingSourceObject: {fileID: 0}
  m_PrefabInstance: {fileID: 0}
  m_PrefabAsset: {fileID: 0}
  m_Name: BeelzebubMask
  m_Mask: 00000000010000000100000000000000000000000100000001000000010000000100000000000000000000000100000001000000
  m_Elements:
  - m_Path: 
    m_Weight: 1
  - m_Path: Beelzebub
    m_Weight: 1
  - m_Path: Character1_Ctrl_Reference
    m_Weight: 1
  - m_Path: Character1_Ctrl_Reference/Character1_Ctrl_ChestEndEffector
    m_Weight: 1
  - m_Path: Character1_Ctrl_Reference/Character1_Ctrl_ChestOriginEffector
    m_Weight: 1
  - m_Path: Character1_Ctrl_Reference/Character1_Ctrl_HeadEffector
    m_Weight: 1
  - m_Path: Character1_Ctrl_Reference/Character1_Ctrl_Hips
    m_Weight: 1
  - m_Path: Character1_Ctrl_Reference/Character1_Ctrl_Hips/Character1_Ctrl_LeftUpLeg
    m_Weight: 1
  - m_Path: Character1_Ctrl_Reference/Character1_Ctrl_Hips/Character1_Ctrl_LeftUpLeg/Character1_Ctrl_LeftLeg
    m_Weight: 1
  - m_Path: Character1_Ctrl_Reference/Character1_Ctrl_Hips/Character1_Ctrl_LeftUpLeg/Character1_Ctrl_LeftLeg/Character1_Ctrl_LeftFoot
    m_Weight: 1
  - m_Path: Character1_Ctrl_Reference/Character1_Ctrl_Hips/Character1_Ctrl_LeftUpLeg/Character1_Ctrl_LeftLeg/Character1_Ctrl_LeftFoot/Character1_Ctrl_LeftToeBase
    m_Weight: 1
  - m_Path: Character1_Ctrl_Reference/Character1_Ctrl_Hips/Character1_Ctrl_RightUpLeg
    m_Weight: 1
  - m_Path: Character1_Ctrl_Reference/Character1_Ctrl_Hips/Character1_Ctrl_RightUpLeg/Character1_Ctrl_RightLeg
    m_Weight: 1
  - m_Path: Character1_Ctrl_Reference/Character1_Ctrl_Hips/Character1_Ctrl_RightUpLeg/Character1_Ctrl_RightLeg/Character1_Ctrl_RightFoot
    m_Weight: 1
  - m_Path: Character1_Ctrl_Reference/Character1_Ctrl_Hips/Character1_Ctrl_RightUpLeg/Character1_Ctrl_RightLeg/Character1_Ctrl_RightFoot/Character1_Ctrl_RightToeBase
    m_Weight: 1
  - m_Path: Character1_Ctrl_Reference/Character1_Ctrl_Hips/Character1_Ctrl_Spine
    m_Weight: 1
  - m_Path: Character1_Ctrl_Reference/Character1_Ctrl_Hips/Character1_Ctrl_Spine/Character1_Ctrl_Spine1
    m_Weight: 1
  - m_Path: Character1_Ctrl_Reference/Character1_Ctrl_Hips/Character1_Ctrl_Spine/Character1_Ctrl_Spine1/Character1_Ctrl_Spine2
    m_Weight: 1
  - m_Path: Character1_Ctrl_Reference/Character1_Ctrl_Hips/Character1_Ctrl_Spine/Character1_Ctrl_Spine1/Character1_Ctrl_Spine2/Character1_Ctrl_LeftShoulder
    m_Weight: 1
  - m_Path: Character1_Ctrl_Reference/Character1_Ctrl_Hips/Character1_Ctrl_Spine/Character1_Ctrl_Spine1/Character1_Ctrl_Spine2/Character1_Ctrl_LeftShoulder/Character1_Ctrl_LeftArm
    m_Weight: 1
  - m_Path: Character1_Ctrl_Reference/Character1_Ctrl_Hips/Character1_Ctrl_Spine/Character1_Ctrl_Spine1/Character1_Ctrl_Spine2/Character1_Ctrl_LeftShoulder/Character1_Ctrl_LeftArm/Character1_Ctrl_LeftForeArm
    m_Weight: 1
  - m_Path: Character1_Ctrl_Reference/Character1_Ctrl_Hips/Character1_Ctrl_Spine/Character1_Ctrl_Spine1/Character1_Ctrl_Spine2/Character1_Ctrl_LeftShoulder/Character1_Ctrl_LeftArm/Character1_Ctrl_LeftForeArm/Character1_Ctrl_LeftHand
    m_Weight: 1
  - m_Path: Character1_Ctrl_Reference/Character1_Ctrl_Hips/Character1_Ctrl_Spine/Character1_Ctrl_Spine1/Character1_Ctrl_Spine2/Character1_Ctrl_LeftShoulder/Character1_Ctrl_LeftArm/Character1_Ctrl_LeftForeArm/Character1_Ctrl_LeftHand/Character1_Ctrl_LeftHandIndex1
    m_Weight: 1
  - m_Path: Character1_Ctrl_Reference/Character1_Ctrl_Hips/Character1_Ctrl_Spine/Character1_Ctrl_Spine1/Character1_Ctrl_Spine2/Character1_Ctrl_LeftShoulder/Character1_Ctrl_LeftArm/Character1_Ctrl_LeftForeArm/Character1_Ctrl_LeftHand/Character1_Ctrl_LeftHandIndex1/Character1_Ctrl_LeftHandIndex2
    m_Weight: 1
  - m_Path: Character1_Ctrl_Reference/Character1_Ctrl_Hips/Character1_Ctrl_Spine/Character1_Ctrl_Spine1/Character1_Ctrl_Spine2/Character1_Ctrl_LeftShoulder/Character1_Ctrl_LeftArm/Character1_Ctrl_LeftForeArm/Character1_Ctrl_LeftHand/Character1_Ctrl_LeftHandIndex1/Character1_Ctrl_LeftHandIndex2/Character1_Ctrl_LeftHandIndex3
    m_Weight: 1
  - m_Path: Character1_Ctrl_Reference/Character1_Ctrl_Hips/Character1_Ctrl_Spine/Character1_Ctrl_Spine1/Character1_Ctrl_Spine2/Character1_Ctrl_LeftShoulder/Character1_Ctrl_LeftArm/Character1_Ctrl_LeftForeArm/Character1_Ctrl_LeftHand/Character1_Ctrl_LeftHandIndex1/Character1_Ctrl_LeftHandIndex2/Character1_Ctrl_LeftHandIndex3/Character1_Ctrl_LeftHandIndex4
    m_Weight: 1
  - m_Path: Character1_Ctrl_Reference/Character1_Ctrl_Hips/Character1_Ctrl_Spine/Character1_Ctrl_Spine1/Character1_Ctrl_Spine2/Character1_Ctrl_LeftShoulder/Character1_Ctrl_LeftArm/Character1_Ctrl_LeftForeArm/Character1_Ctrl_LeftHand/Character1_Ctrl_LeftHandMiddle1
    m_Weight: 1
  - m_Path: Character1_Ctrl_Reference/Character1_Ctrl_Hips/Character1_Ctrl_Spine/Character1_Ctrl_Spine1/Character1_Ctrl_Spine2/Character1_Ctrl_LeftShoulder/Character1_Ctrl_LeftArm/Character1_Ctrl_LeftForeArm/Character1_Ctrl_LeftHand/Character1_Ctrl_LeftHandMiddle1/Character1_Ctrl_LeftHandMiddle2
    m_Weight: 1
  - m_Path: Character1_Ctrl_Reference/Character1_Ctrl_Hips/Character1_Ctrl_Spine/Character1_Ctrl_Spine1/Character1_Ctrl_Spine2/Character1_Ctrl_LeftShoulder/Character1_Ctrl_LeftArm/Character1_Ctrl_LeftForeArm/Character1_Ctrl_LeftHand/Character1_Ctrl_LeftHandMiddle1/Character1_Ctrl_LeftHandMiddle2/Character1_Ctrl_LeftHandMiddle3
    m_Weight: 1
  - m_Path: Character1_Ctrl_Reference/Character1_Ctrl_Hips/Character1_Ctrl_Spine/Character1_Ctrl_Spine1/Character1_Ctrl_Spine2/Character1_Ctrl_LeftShoulder/Character1_Ctrl_LeftArm/Character1_Ctrl_LeftForeArm/Character1_Ctrl_LeftHand/Character1_Ctrl_LeftHandMiddle1/Character1_Ctrl_LeftHandMiddle2/Character1_Ctrl_LeftHandMiddle3/Character1_Ctrl_LeftHandMiddle4
    m_Weight: 1
  - m_Path: Character1_Ctrl_Reference/Character1_Ctrl_Hips/Character1_Ctrl_Spine/Character1_Ctrl_Spine1/Character1_Ctrl_Spine2/Character1_Ctrl_LeftShoulder/Character1_Ctrl_LeftArm/Character1_Ctrl_LeftForeArm/Character1_Ctrl_LeftHand/Character1_Ctrl_LeftHandPinky1
    m_Weight: 1
  - m_Path: Character1_Ctrl_Reference/Character1_Ctrl_Hips/Character1_Ctrl_Spine/Character1_Ctrl_Spine1/Character1_Ctrl_Spine2/Character1_Ctrl_LeftShoulder/Character1_Ctrl_LeftArm/Character1_Ctrl_LeftForeArm/Character1_Ctrl_LeftHand/Character1_Ctrl_LeftHandPinky1/Character1_Ctrl_LeftHandPinky2
    m_Weight: 1
  - m_Path: Character1_Ctrl_Reference/Character1_Ctrl_Hips/Character1_Ctrl_Spine/Character1_Ctrl_Spine1/Character1_Ctrl_Spine2/Character1_Ctrl_LeftShoulder/Character1_Ctrl_LeftArm/Character1_Ctrl_LeftForeArm/Character1_Ctrl_LeftHand/Character1_Ctrl_LeftHandPinky1/Character1_Ctrl_LeftHandPinky2/Character1_Ctrl_LeftHandPinky3
    m_Weight: 1
  - m_Path: Character1_Ctrl_Reference/Character1_Ctrl_Hips/Character1_Ctrl_Spine/Character1_Ctrl_Spine1/Character1_Ctrl_Spine2/Character1_Ctrl_LeftShoulder/Character1_Ctrl_LeftArm/Character1_Ctrl_LeftForeArm/Character1_Ctrl_LeftHand/Character1_Ctrl_LeftHandPinky1/Character1_Ctrl_LeftHandPinky2/Character1_Ctrl_LeftHandPinky3/Character1_Ctrl_LeftHandPinky4
    m_Weight: 1
  - m_Path: Character1_Ctrl_Reference/Character1_Ctrl_Hips/Character1_Ctrl_Spine/Character1_Ctrl_Spine1/Character1_Ctrl_Spine2/Character1_Ctrl_LeftShoulder/Character1_Ctrl_LeftArm/Character1_Ctrl_LeftForeArm/Character1_Ctrl_LeftHand/Character1_Ctrl_LeftHandRing1
    m_Weight: 1
  - m_Path: Character1_Ctrl_Reference/Character1_Ctrl_Hips/Character1_Ctrl_Spine/Character1_Ctrl_Spine1/Character1_Ctrl_Spine2/Character1_Ctrl_LeftShoulder/Character1_Ctrl_LeftArm/Character1_Ctrl_LeftForeArm/Character1_Ctrl_LeftHand/Character1_Ctrl_LeftHandRing1/Character1_Ctrl_LeftHandRing2
    m_Weight: 1
  - m_Path: Character1_Ctrl_Reference/Character1_Ctrl_Hips/Character1_Ctrl_Spine/Character1_Ctrl_Spine1/Character1_Ctrl_Spine2/Character1_Ctrl_LeftShoulder/Character1_Ctrl_LeftArm/Character1_Ctrl_LeftForeArm/Character1_Ctrl_LeftHand/Character1_Ctrl_LeftHandRing1/Character1_Ctrl_LeftHandRing2/Character1_Ctrl_LeftHandRing3
    m_Weight: 1
  - m_Path: Character1_Ctrl_Reference/Character1_Ctrl_Hips/Character1_Ctrl_Spine/Character1_Ctrl_Spine1/Character1_Ctrl_Spine2/Character1_Ctrl_LeftShoulder/Character1_Ctrl_LeftArm/Character1_Ctrl_LeftForeArm/Character1_Ctrl_LeftHand/Character1_Ctrl_LeftHandRing1/Character1_Ctrl_LeftHandRing2/Character1_Ctrl_LeftHandRing3/Character1_Ctrl_LeftHandRing4
    m_Weight: 1
  - m_Path: Character1_Ctrl_Reference/Character1_Ctrl_Hips/Character1_Ctrl_Spine/Character1_Ctrl_Spine1/Character1_Ctrl_Spine2/Character1_Ctrl_LeftShoulder/Character1_Ctrl_LeftArm/Character1_Ctrl_LeftForeArm/Character1_Ctrl_LeftHand/Character1_Ctrl_LeftHandThumb1
    m_Weight: 1
  - m_Path: Character1_Ctrl_Reference/Character1_Ctrl_Hips/Character1_Ctrl_Spine/Character1_Ctrl_Spine1/Character1_Ctrl_Spine2/Character1_Ctrl_LeftShoulder/Character1_Ctrl_LeftArm/Character1_Ctrl_LeftForeArm/Character1_Ctrl_LeftHand/Character1_Ctrl_LeftHandThumb1/Character1_Ctrl_LeftHandThumb2
    m_Weight: 1
  - m_Path: Character1_Ctrl_Reference/Character1_Ctrl_Hips/Character1_Ctrl_Spine/Character1_Ctrl_Spine1/Character1_Ctrl_Spine2/Character1_Ctrl_LeftShoulder/Character1_Ctrl_LeftArm/Character1_Ctrl_LeftForeArm/Character1_Ctrl_LeftHand/Character1_Ctrl_LeftHandThumb1/Character1_Ctrl_LeftHandThumb2/Character1_Ctrl_LeftHandThumb3
    m_Weight: 1
  - m_Path: Character1_Ctrl_Reference/Character1_Ctrl_Hips/Character1_Ctrl_Spine/Character1_Ctrl_Spine1/Character1_Ctrl_Spine2/Character1_Ctrl_LeftShoulder/Character1_Ctrl_LeftArm/Character1_Ctrl_LeftForeArm/Character1_Ctrl_LeftHand/Character1_Ctrl_LeftHandThumb1/Character1_Ctrl_LeftHandThumb2/Character1_Ctrl_LeftHandThumb3/Character1_Ctrl_LeftHandThumb4
    m_Weight: 1
  - m_Path: Character1_Ctrl_Reference/Character1_Ctrl_Hips/Character1_Ctrl_Spine/Character1_Ctrl_Spine1/Character1_Ctrl_Spine2/Character1_Ctrl_Neck
    m_Weight: 1
  - m_Path: Character1_Ctrl_Reference/Character1_Ctrl_Hips/Character1_Ctrl_Spine/Character1_Ctrl_Spine1/Character1_Ctrl_Spine2/Character1_Ctrl_Neck/Character1_Ctrl_Head
    m_Weight: 1
  - m_Path: Character1_Ctrl_Reference/Character1_Ctrl_Hips/Character1_Ctrl_Spine/Character1_Ctrl_Spine1/Character1_Ctrl_Spine2/Character1_Ctrl_RightShoulder
    m_Weight: 1
  - m_Path: Character1_Ctrl_Reference/Character1_Ctrl_Hips/Character1_Ctrl_Spine/Character1_Ctrl_Spine1/Character1_Ctrl_Spine2/Character1_Ctrl_RightShoulder/Character1_Ctrl_RightArm
    m_Weight: 1
  - m_Path: Character1_Ctrl_Reference/Character1_Ctrl_Hips/Character1_Ctrl_Spine/Character1_Ctrl_Spine1/Character1_Ctrl_Spine2/Character1_Ctrl_RightShoulder/Character1_Ctrl_RightArm/Character1_Ctrl_RightForeArm
    m_Weight: 1
  - m_Path: Character1_Ctrl_Reference/Character1_Ctrl_Hips/Character1_Ctrl_Spine/Character1_Ctrl_Spine1/Character1_Ctrl_Spine2/Character1_Ctrl_RightShoulder/Character1_Ctrl_RightArm/Character1_Ctrl_RightForeArm/Character1_Ctrl_RightHand
    m_Weight: 1
  - m_Path: Character1_Ctrl_Reference/Character1_Ctrl_Hips/Character1_Ctrl_Spine/Character1_Ctrl_Spine1/Character1_Ctrl_Spine2/Character1_Ctrl_RightShoulder/Character1_Ctrl_RightArm/Character1_Ctrl_RightForeArm/Character1_Ctrl_RightHand/Character1_Ctrl_RightHandIndex1
    m_Weight: 1
  - m_Path: Character1_Ctrl_Reference/Character1_Ctrl_Hips/Character1_Ctrl_Spine/Character1_Ctrl_Spine1/Character1_Ctrl_Spine2/Character1_Ctrl_RightShoulder/Character1_Ctrl_RightArm/Character1_Ctrl_RightForeArm/Character1_Ctrl_RightHand/Character1_Ctrl_RightHandIndex1/Character1_Ctrl_RightHandIndex2
    m_Weight: 1
  - m_Path: Character1_Ctrl_Reference/Character1_Ctrl_Hips/Character1_Ctrl_Spine/Character1_Ctrl_Spine1/Character1_Ctrl_Spine2/Character1_Ctrl_RightShoulder/Character1_Ctrl_RightArm/Character1_Ctrl_RightForeArm/Character1_Ctrl_RightHand/Character1_Ctrl_RightHandIndex1/Character1_Ctrl_RightHandIndex2/Character1_Ctrl_RightHandIndex3
    m_Weight: 1
  - m_Path: Character1_Ctrl_Reference/Character1_Ctrl_Hips/Character1_Ctrl_Spine/Character1_Ctrl_Spine1/Character1_Ctrl_Spine2/Character1_Ctrl_RightShoulder/Character1_Ctrl_RightArm/Character1_Ctrl_RightForeArm/Character1_Ctrl_RightHand/Character1_Ctrl_RightHandIndex1/Character1_Ctrl_RightHandIndex2/Character1_Ctrl_RightHandIndex3/Character1_Ctrl_RightHandIndex4
    m_Weight: 1
  - m_Path: Character1_Ctrl_Reference/Character1_Ctrl_Hips/Character1_Ctrl_Spine/Character1_Ctrl_Spine1/Character1_Ctrl_Spine2/Character1_Ctrl_RightShoulder/Character1_Ctrl_RightArm/Character1_Ctrl_RightForeArm/Character1_Ctrl_RightHand/Character1_Ctrl_RightHandMiddle1
    m_Weight: 1
  - m_Path: Character1_Ctrl_Reference/Character1_Ctrl_Hips/Character1_Ctrl_Spine/Character1_Ctrl_Spine1/Character1_Ctrl_Spine2/Character1_Ctrl_RightShoulder/Character1_Ctrl_RightArm/Character1_Ctrl_RightForeArm/Character1_Ctrl_RightHand/Character1_Ctrl_RightHandMiddle1/Character1_Ctrl_RightHandMiddle2
    m_Weight: 1
  - m_Path: Character1_Ctrl_Reference/Character1_Ctrl_Hips/Character1_Ctrl_Spine/Character1_Ctrl_Spine1/Character1_Ctrl_Spine2/Character1_Ctrl_RightShoulder/Character1_Ctrl_RightArm/Character1_Ctrl_RightForeArm/Character1_Ctrl_RightHand/Character1_Ctrl_RightHandMiddle1/Character1_Ctrl_RightHandMiddle2/Character1_Ctrl_RightHandMiddle3
    m_Weight: 1
  - m_Path: Character1_Ctrl_Reference/Character1_Ctrl_Hips/Character1_Ctrl_Spine/Character1_Ctrl_Spine1/Character1_Ctrl_Spine2/Character1_Ctrl_RightShoulder/Character1_Ctrl_RightArm/Character1_Ctrl_RightForeArm/Character1_Ctrl_RightHand/Character1_Ctrl_RightHandMiddle1/Character1_Ctrl_RightHandMiddle2/Character1_Ctrl_RightHandMiddle3/Character1_Ctrl_RightHandMiddle4
    m_Weight: 1
  - m_Path: Character1_Ctrl_Reference/Character1_Ctrl_Hips/Character1_Ctrl_Spine/Character1_Ctrl_Spine1/Character1_Ctrl_Spine2/Character1_Ctrl_RightShoulder/Character1_Ctrl_RightArm/Character1_Ctrl_RightForeArm/Character1_Ctrl_RightHand/Character1_Ctrl_RightHandPinky1
    m_Weight: 1
  - m_Path: Character1_Ctrl_Reference/Character1_Ctrl_Hips/Character1_Ctrl_Spine/Character1_Ctrl_Spine1/Character1_Ctrl_Spine2/Character1_Ctrl_RightShoulder/Character1_Ctrl_RightArm/Character1_Ctrl_RightForeArm/Character1_Ctrl_RightHand/Character1_Ctrl_RightHandPinky1/Character1_Ctrl_RightHandPinky2
    m_Weight: 1
  - m_Path: Character1_Ctrl_Reference/Character1_Ctrl_Hips/Character1_Ctrl_Spine/Character1_Ctrl_Spine1/Character1_Ctrl_Spine2/Character1_Ctrl_RightShoulder/Character1_Ctrl_RightArm/Character1_Ctrl_RightForeArm/Character1_Ctrl_RightHand/Character1_Ctrl_RightHandPinky1/Character1_Ctrl_RightHandPinky2/Character1_Ctrl_RightHandPinky3
    m_Weight: 1
  - m_Path: Character1_Ctrl_Reference/Character1_Ctrl_Hips/Character1_Ctrl_Spine/Character1_Ctrl_Spine1/Character1_Ctrl_Spine2/Character1_Ctrl_RightShoulder/Character1_Ctrl_RightArm/Character1_Ctrl_RightForeArm/Character1_Ctrl_RightHand/Character1_Ctrl_RightHandPinky1/Character1_Ctrl_RightHandPinky2/Character1_Ctrl_RightHandPinky3/Character1_Ctrl_RightHandPinky4
    m_Weight: 1
  - m_Path: Character1_Ctrl_Reference/Character1_Ctrl_Hips/Character1_Ctrl_Spine/Character1_Ctrl_Spine1/Character1_Ctrl_Spine2/Character1_Ctrl_RightShoulder/Character1_Ctrl_RightArm/Character1_Ctrl_RightForeArm/Character1_Ctrl_RightHand/Character1_Ctrl_RightHandRing1
    m_Weight: 1
  - m_Path: Character1_Ctrl_Reference/Character1_Ctrl_Hips/Character1_Ctrl_Spine/Character1_Ctrl_Spine1/Character1_Ctrl_Spine2/Character1_Ctrl_RightShoulder/Character1_Ctrl_RightArm/Character1_Ctrl_RightForeArm/Character1_Ctrl_RightHand/Character1_Ctrl_RightHandRing1/Character1_Ctrl_RightHandRing2
    m_Weight: 1
  - m_Path: Character1_Ctrl_Reference/Character1_Ctrl_Hips/Character1_Ctrl_Spine/Character1_Ctrl_Spine1/Character1_Ctrl_Spine2/Character1_Ctrl_RightShoulder/Character1_Ctrl_RightArm/Character1_Ctrl_RightForeArm/Character1_Ctrl_RightHand/Character1_Ctrl_RightHandRing1/Character1_Ctrl_RightHandRing2/Character1_Ctrl_RightHandRing3
    m_Weight: 1
  - m_Path: Character1_Ctrl_Reference/Character1_Ctrl_Hips/Character1_Ctrl_Spine/Character1_Ctrl_Spine1/Character1_Ctrl_Spine2/Character1_Ctrl_RightShoulder/Character1_Ctrl_RightArm/Character1_Ctrl_RightForeArm/Character1_Ctrl_RightHand/Character1_Ctrl_RightHandRing1/Character1_Ctrl_RightHandRing2/Character1_Ctrl_RightHandRing3/Character1_Ctrl_RightHandRing4
    m_Weight: 1
  - m_Path: Character1_Ctrl_Reference/Character1_Ctrl_Hips/Character1_Ctrl_Spine/Character1_Ctrl_Spine1/Character1_Ctrl_Spine2/Character1_Ctrl_RightShoulder/Character1_Ctrl_RightArm/Character1_Ctrl_RightForeArm/Character1_Ctrl_RightHand/Character1_Ctrl_RightHandThumb1
    m_Weight: 1
  - m_Path: Character1_Ctrl_Reference/Character1_Ctrl_Hips/Character1_Ctrl_Spine/Character1_Ctrl_Spine1/Character1_Ctrl_Spine2/Character1_Ctrl_RightShoulder/Character1_Ctrl_RightArm/Character1_Ctrl_RightForeArm/Character1_Ctrl_RightHand/Character1_Ctrl_RightHandThumb1/Character1_Ctrl_RightHandThumb2
    m_Weight: 1
  - m_Path: Character1_Ctrl_Reference/Character1_Ctrl_Hips/Character1_Ctrl_Spine/Character1_Ctrl_Spine1/Character1_Ctrl_Spine2/Character1_Ctrl_RightShoulder/Character1_Ctrl_RightArm/Character1_Ctrl_RightForeArm/Character1_Ctrl_RightHand/Character1_Ctrl_RightHandThumb1/Character1_Ctrl_RightHandThumb2/Character1_Ctrl_RightHandThumb3
    m_Weight: 1
  - m_Path: Character1_Ctrl_Reference/Character1_Ctrl_Hips/Character1_Ctrl_Spine/Character1_Ctrl_Spine1/Character1_Ctrl_Spine2/Character1_Ctrl_RightShoulder/Character1_Ctrl_RightArm/Character1_Ctrl_RightForeArm/Character1_Ctrl_RightHand/Character1_Ctrl_RightHandThumb1/Character1_Ctrl_RightHandThumb2/Character1_Ctrl_RightHandThumb3/Character1_Ctrl_RightHandThumb4
    m_Weight: 1
  - m_Path: Character1_Ctrl_Reference/Character1_Ctrl_HipsEffector
    m_Weight: 1
  - m_Path: Character1_Ctrl_Reference/Character1_Ctrl_LeftAnkleEffector
    m_Weight: 1
  - m_Path: Character1_Ctrl_Reference/Character1_Ctrl_LeftElbowEffector
    m_Weight: 1
  - m_Path: Character1_Ctrl_Reference/Character1_Ctrl_LeftFootEffector
    m_Weight: 1
  - m_Path: Character1_Ctrl_Reference/Character1_Ctrl_LeftHandIndexEffector
    m_Weight: 1
  - m_Path: Character1_Ctrl_Reference/Character1_Ctrl_LeftHandMiddleEffector
    m_Weight: 1
  - m_Path: Character1_Ctrl_Reference/Character1_Ctrl_LeftHandPinkyEffector
    m_Weight: 1
  - m_Path: Character1_Ctrl_Reference/Character1_Ctrl_LeftHandRingEffector
    m_Weight: 1
  - m_Path: Character1_Ctrl_Reference/Character1_Ctrl_LeftHandThumbEffector
    m_Weight: 1
  - m_Path: Character1_Ctrl_Reference/Character1_Ctrl_LeftHipEffector
    m_Weight: 1
  - m_Path: Character1_Ctrl_Reference/Character1_Ctrl_LeftKneeEffector
    m_Weight: 1
  - m_Path: Character1_Ctrl_Reference/Character1_Ctrl_LeftShoulderEffector
    m_Weight: 1
  - m_Path: Character1_Ctrl_Reference/Character1_Ctrl_LeftWristEffector
    m_Weight: 1
  - m_Path: Character1_Ctrl_Reference/Character1_Ctrl_RightAnkleEffector
    m_Weight: 1
  - m_Path: Character1_Ctrl_Reference/Character1_Ctrl_RightElbowEffector
    m_Weight: 1
  - m_Path: Character1_Ctrl_Reference/Character1_Ctrl_RightFootEffector
    m_Weight: 1
  - m_Path: Character1_Ctrl_Reference/Character1_Ctrl_RightHandIndexEffector
    m_Weight: 1
  - m_Path: Character1_Ctrl_Reference/Character1_Ctrl_RightHandMiddleEffector
    m_Weight: 1
  - m_Path: Character1_Ctrl_Reference/Character1_Ctrl_RightHandPinkyEffector
    m_Weight: 1
  - m_Path: Character1_Ctrl_Reference/Character1_Ctrl_RightHandRingEffector
    m_Weight: 1
  - m_Path: Character1_Ctrl_Reference/Character1_Ctrl_RightHandThumbEffector
    m_Weight: 1
  - m_Path: Character1_Ctrl_Reference/Character1_Ctrl_RightHipEffector
    m_Weight: 1
  - m_Path: Character1_Ctrl_Reference/Character1_Ctrl_RightKneeEffector
    m_Weight: 1
  - m_Path: Character1_Ctrl_Reference/Character1_Ctrl_RightShoulderEffector
    m_Weight: 1
  - m_Path: Character1_Ctrl_Reference/Character1_Ctrl_RightWristEffector
    m_Weight: 1
  - m_Path: Character1_Reference
    m_Weight: 1
  - m_Path: Character1_Reference/Character1_Hips
    m_Weight: 1
  - m_Path: Character1_Reference/Character1_Hips/Character1_LeftUpLeg
    m_Weight: 1
  - m_Path: Character1_Reference/Character1_Hips/Character1_LeftUpLeg/Character1_LeftLeg
    m_Weight: 1
  - m_Path: Character1_Reference/Character1_Hips/Character1_LeftUpLeg/Character1_LeftLeg/Character1_LeftFoot
    m_Weight: 1
  - m_Path: Character1_Reference/Character1_Hips/Character1_LeftUpLeg/Character1_LeftLeg/Character1_LeftFoot/Character1_LeftToeBase
    m_Weight: 1
  - m_Path: Character1_Reference/Character1_Hips/Character1_RightUpLeg
    m_Weight: 1
  - m_Path: Character1_Reference/Character1_Hips/Character1_RightUpLeg/Character1_RightLeg
    m_Weight: 1
  - m_Path: Character1_Reference/Character1_Hips/Character1_RightUpLeg/Character1_RightLeg/Character1_RightFoot
    m_Weight: 1
  - m_Path: Character1_Reference/Character1_Hips/Character1_RightUpLeg/Character1_RightLeg/Character1_RightFoot/Character1_RightToeBase
    m_Weight: 1
  - m_Path: Character1_Reference/Character1_Hips/Character1_Spine
    m_Weight: 1
  - m_Path: Character1_Reference/Character1_Hips/Character1_Spine/Character1_L_Belly_Mouth1
    m_Weight: 1
  - m_Path: Character1_Reference/Character1_Hips/Character1_Spine/Character1_L_Belly_Mouth1/Character1_L_Belly_Mouth2
    m_Weight: 1
  - m_Path: Character1_Reference/Character1_Hips/Character1_Spine/Character1_L_Belly_Mouth1/Character1_L_Belly_Mouth3
    m_Weight: 1
  - m_Path: Character1_Reference/Character1_Hips/Character1_Spine/Character1_L_Belly_Mouth1/Character1_L_Belly_Mouth4
    m_Weight: 1
  - m_Path: Character1_Reference/Character1_Hips/Character1_Spine/Character1_R_Belly_Mouth1
    m_Weight: 1
  - m_Path: Character1_Reference/Character1_Hips/Character1_Spine/Character1_R_Belly_Mouth1/Character1_R_Belly_Mouth2
    m_Weight: 1
  - m_Path: Character1_Reference/Character1_Hips/Character1_Spine/Character1_R_Belly_Mouth1/Character1_R_Belly_Mouth3
    m_Weight: 1
  - m_Path: Character1_Reference/Character1_Hips/Character1_Spine/Character1_R_Belly_Mouth1/Character1_R_Belly_Mouth4
    m_Weight: 1
  - m_Path: Character1_Reference/Character1_Hips/Character1_Spine/Character1_Spine1
    m_Weight: 1
  - m_Path: Character1_Reference/Character1_Hips/Character1_Spine/Character1_Spine1/Character1_Spine2
    m_Weight: 1
  - m_Path: Character1_Reference/Character1_Hips/Character1_Spine/Character1_Spine1/Character1_Spine2/Character1_L_Wing1
    m_Weight: 1
  - m_Path: Character1_Reference/Character1_Hips/Character1_Spine/Character1_Spine1/Character1_Spine2/Character1_L_Wing1/Character1_L_Wing2
    m_Weight: 1
  - m_Path: Character1_Reference/Character1_Hips/Character1_Spine/Character1_Spine1/Character1_Spine2/Character1_L_Wing1/Character1_L_Wing2/Character1_L_Wing3
    m_Weight: 1
  - m_Path: Character1_Reference/Character1_Hips/Character1_Spine/Character1_Spine1/Character1_Spine2/Character1_LeftShoulder
    m_Weight: 1
  - m_Path: Character1_Reference/Character1_Hips/Character1_Spine/Character1_Spine1/Character1_Spine2/Character1_LeftShoulder/Character1_LeftArm
    m_Weight: 1
  - m_Path: Character1_Reference/Character1_Hips/Character1_Spine/Character1_Spine1/Character1_Spine2/Character1_LeftShoulder/Character1_LeftArm/Character1_LeftForeArm
    m_Weight: 1
  - m_Path: Character1_Reference/Character1_Hips/Character1_Spine/Character1_Spine1/Character1_Spine2/Character1_LeftShoulder/Character1_LeftArm/Character1_LeftForeArm/Character1_LeftHand
    m_Weight: 1
  - m_Path: Character1_Reference/Character1_Hips/Character1_Spine/Character1_Spine1/Character1_Spine2/Character1_LeftShoulder/Character1_LeftArm/Character1_LeftForeArm/Character1_LeftHand/Character1_LeftHandIndex1
    m_Weight: 1
  - m_Path: Character1_Reference/Character1_Hips/Character1_Spine/Character1_Spine1/Character1_Spine2/Character1_LeftShoulder/Character1_LeftArm/Character1_LeftForeArm/Character1_LeftHand/Character1_LeftHandIndex1/Character1_LeftHandIndex2
    m_Weight: 1
  - m_Path: Character1_Reference/Character1_Hips/Character1_Spine/Character1_Spine1/Character1_Spine2/Character1_LeftShoulder/Character1_LeftArm/Character1_LeftForeArm/Character1_LeftHand/Character1_LeftHandIndex1/Character1_LeftHandIndex2/Character1_LeftHandIndex3
    m_Weight: 1
  - m_Path: Character1_Reference/Character1_Hips/Character1_Spine/Character1_Spine1/Character1_Spine2/Character1_LeftShoulder/Character1_LeftArm/Character1_LeftForeArm/Character1_LeftHand/Character1_LeftHandIndex1/Character1_LeftHandIndex2/Character1_LeftHandIndex3/Character1_LeftHandIndex4
    m_Weight: 1
  - m_Path: Character1_Reference/Character1_Hips/Character1_Spine/Character1_Spine1/Character1_Spine2/Character1_LeftShoulder/Character1_LeftArm/Character1_LeftForeArm/Character1_LeftHand/Character1_LeftHandMiddle1
    m_Weight: 1
  - m_Path: Character1_Reference/Character1_Hips/Character1_Spine/Character1_Spine1/Character1_Spine2/Character1_LeftShoulder/Character1_LeftArm/Character1_LeftForeArm/Character1_LeftHand/Character1_LeftHandMiddle1/Character1_LeftHandMiddle2
    m_Weight: 1
  - m_Path: Character1_Reference/Character1_Hips/Character1_Spine/Character1_Spine1/Character1_Spine2/Character1_LeftShoulder/Character1_LeftArm/Character1_LeftForeArm/Character1_LeftHand/Character1_LeftHandMiddle1/Character1_LeftHandMiddle2/Character1_LeftHandMiddle3
    m_Weight: 1
  - m_Path: Character1_Reference/Character1_Hips/Character1_Spine/Character1_Spine1/Character1_Spine2/Character1_LeftShoulder/Character1_LeftArm/Character1_LeftForeArm/Character1_LeftHand/Character1_LeftHandMiddle1/Character1_LeftHandMiddle2/Character1_LeftHandMiddle3/Character1_LeftHandMiddle4
    m_Weight: 1
  - m_Path: Character1_Reference/Character1_Hips/Character1_Spine/Character1_Spine1/Character1_Spine2/Character1_LeftShoulder/Character1_LeftArm/Character1_LeftForeArm/Character1_LeftHand/Character1_LeftHandPinky1
    m_Weight: 1
  - m_Path: Character1_Reference/Character1_Hips/Character1_Spine/Character1_Spine1/Character1_Spine2/Character1_LeftShoulder/Character1_LeftArm/Character1_LeftForeArm/Character1_LeftHand/Character1_LeftHandPinky1/Character1_LeftHandPinky2
    m_Weight: 1
  - m_Path: Character1_Reference/Character1_Hips/Character1_Spine/Character1_Spine1/Character1_Spine2/Character1_LeftShoulder/Character1_LeftArm/Character1_LeftForeArm/Character1_LeftHand/Character1_LeftHandPinky1/Character1_LeftHandPinky2/Character1_LeftHandPinky3
    m_Weight: 1
  - m_Path: Character1_Reference/Character1_Hips/Character1_Spine/Character1_Spine1/Character1_Spine2/Character1_LeftShoulder/Character1_LeftArm/Character1_LeftForeArm/Character1_LeftHand/Character1_LeftHandPinky1/Character1_LeftHandPinky2/Character1_LeftHandPinky3/Character1_LeftHandPinky4
    m_Weight: 1
  - m_Path: Character1_Reference/Character1_Hips/Character1_Spine/Character1_Spine1/Character1_Spine2/Character1_LeftShoulder/Character1_LeftArm/Character1_LeftForeArm/Character1_LeftHand/Character1_LeftHandRing1
    m_Weight: 1
  - m_Path: Character1_Reference/Character1_Hips/Character1_Spine/Character1_Spine1/Character1_Spine2/Character1_LeftShoulder/Character1_LeftArm/Character1_LeftForeArm/Character1_LeftHand/Character1_LeftHandRing1/Character1_LeftHandRing2
    m_Weight: 1
  - m_Path: Character1_Reference/Character1_Hips/Character1_Spine/Character1_Spine1/Character1_Spine2/Character1_LeftShoulder/Character1_LeftArm/Character1_LeftForeArm/Character1_LeftHand/Character1_LeftHandRing1/Character1_LeftHandRing2/Character1_LeftHandRing3
    m_Weight: 1
  - m_Path: Character1_Reference/Character1_Hips/Character1_Spine/Character1_Spine1/Character1_Spine2/Character1_LeftShoulder/Character1_LeftArm/Character1_LeftForeArm/Character1_LeftHand/Character1_LeftHandRing1/Character1_LeftHandRing2/Character1_LeftHandRing3/Character1_LeftHandRing4
    m_Weight: 1
  - m_Path: Character1_Reference/Character1_Hips/Character1_Spine/Character1_Spine1/Character1_Spine2/Character1_LeftShoulder/Character1_LeftArm/Character1_LeftForeArm/Character1_LeftHand/Character1_LeftHandThumb1
    m_Weight: 1
  - m_Path: Character1_Reference/Character1_Hips/Character1_Spine/Character1_Spine1/Character1_Spine2/Character1_LeftShoulder/Character1_LeftArm/Character1_LeftForeArm/Character1_LeftHand/Character1_LeftHandThumb1/Character1_LeftHandThumb2
    m_Weight: 1
  - m_Path: Character1_Reference/Character1_Hips/Character1_Spine/Character1_Spine1/Character1_Spine2/Character1_LeftShoulder/Character1_LeftArm/Character1_LeftForeArm/Character1_LeftHand/Character1_LeftHandThumb1/Character1_LeftHandThumb2/Character1_LeftHandThumb3
    m_Weight: 1
  - m_Path: Character1_Reference/Character1_Hips/Character1_Spine/Character1_Spine1/Character1_Spine2/Character1_LeftShoulder/Character1_LeftArm/Character1_LeftForeArm/Character1_LeftHand/Character1_LeftHandThumb1/Character1_LeftHandThumb2/Character1_LeftHandThumb3/Character1_LeftHandThumb4
    m_Weight: 1
  - m_Path: Character1_Reference/Character1_Hips/Character1_Spine/Character1_Spine1/Character1_Spine2/Character1_Neck
    m_Weight: 1
  - m_Path: Character1_Reference/Character1_Hips/Character1_Spine/Character1_Spine1/Character1_Spine2/Character1_Neck/Character1_Head
    m_Weight: 1
  - m_Path: Character1_Reference/Character1_Hips/Character1_Spine/Character1_Spine1/Character1_Spine2/Character1_Neck/joint1
    m_Weight: 1
  - m_Path: Character1_Reference/Character1_Hips/Character1_Spine/Character1_Spine1/Character1_Spine2/Character1_Neck/joint1/Character1_Tongue1
    m_Weight: 1
  - m_Path: Character1_Reference/Character1_Hips/Character1_Spine/Character1_Spine1/Character1_Spine2/Character1_Neck/joint1/Character1_Tongue1/Character1_Tongue2
    m_Weight: 1
  - m_Path: Character1_Reference/Character1_Hips/Character1_Spine/Character1_Spine1/Character1_Spine2/Character1_Neck/joint1/Character1_Tongue1/Character1_Tongue2/Character1_Tongue3
    m_Weight: 1
  - m_Path: Character1_Reference/Character1_Hips/Character1_Spine/Character1_Spine1/Character1_Spine2/Character1_Neck/joint1/Character1_Tongue1/Character1_Tongue2/Character1_Tongue3/Character1_Tongue4
    m_Weight: 1
  - m_Path: Character1_Reference/Character1_Hips/Character1_Spine/Character1_Spine1/Character1_Spine2/Character1_Neck/joint1/Character1_Tongue1/Character1_Tongue2/Character1_Tongue3/Character1_Tongue4/Character1_Tongue5
    m_Weight: 1
  - m_Path: Character1_Reference/Character1_Hips/Character1_Spine/Character1_Spine1/Character1_Spine2/Character1_Neck/joint1/Character1_Tongue1/Character1_Tongue2/Character1_Tongue3/Character1_Tongue4/Character1_Tongue5/Character1_Tongue6
    m_Weight: 1
  - m_Path: Character1_Reference/Character1_Hips/Character1_Spine/Character1_Spine1/Character1_Spine2/Character1_R_Wing1
    m_Weight: 1
  - m_Path: Character1_Reference/Character1_Hips/Character1_Spine/Character1_Spine1/Character1_Spine2/Character1_R_Wing1/Character1_R_Wing2
    m_Weight: 1
  - m_Path: Character1_Reference/Character1_Hips/Character1_Spine/Character1_Spine1/Character1_Spine2/Character1_R_Wing1/Character1_R_Wing2/Character1_R_Wing3
    m_Weight: 1
  - m_Path: Character1_Reference/Character1_Hips/Character1_Spine/Character1_Spine1/Character1_Spine2/Character1_RightShoulder
    m_Weight: 1
  - m_Path: Character1_Reference/Character1_Hips/Character1_Spine/Character1_Spine1/Character1_Spine2/Character1_RightShoulder/Character1_RightArm
    m_Weight: 1
  - m_Path: Character1_Reference/Character1_Hips/Character1_Spine/Character1_Spine1/Character1_Spine2/Character1_RightShoulder/Character1_RightArm/Character1_RightForeArm
    m_Weight: 1
  - m_Path: Character1_Reference/Character1_Hips/Character1_Spine/Character1_Spine1/Character1_Spine2/Character1_RightShoulder/Character1_RightArm/Character1_RightForeArm/Character1_RightHand
    m_Weight: 1
  - m_Path: Character1_Reference/Character1_Hips/Character1_Spine/Character1_Spine1/Character1_Spine2/Character1_RightShoulder/Character1_RightArm/Character1_RightForeArm/Character1_RightHand/Character1_RightHandIndex1
    m_Weight: 1
  - m_Path: Character1_Reference/Character1_Hips/Character1_Spine/Character1_Spine1/Character1_Spine2/Character1_RightShoulder/Character1_RightArm/Character1_RightForeArm/Character1_RightHand/Character1_RightHandIndex1/Character1_RightHandIndex2
    m_Weight: 1
  - m_Path: Character1_Reference/Character1_Hips/Character1_Spine/Character1_Spine1/Character1_Spine2/Character1_RightShoulder/Character1_RightArm/Character1_RightForeArm/Character1_RightHand/Character1_RightHandIndex1/Character1_RightHandIndex2/Character1_RightHandIndex3
    m_Weight: 1
  - m_Path: Character1_Reference/Character1_Hips/Character1_Spine/Character1_Spine1/Character1_Spine2/Character1_RightShoulder/Character1_RightArm/Character1_RightForeArm/Character1_RightHand/Character1_RightHandIndex1/Character1_RightHandIndex2/Character1_RightHandIndex3/Character1_RightHandIndex4
    m_Weight: 1
  - m_Path: Character1_Reference/Character1_Hips/Character1_Spine/Character1_Spine1/Character1_Spine2/Character1_RightShoulder/Character1_RightArm/Character1_RightForeArm/Character1_RightHand/Character1_RightHandMiddle1
    m_Weight: 1
  - m_Path: Character1_Reference/Character1_Hips/Character1_Spine/Character1_Spine1/Character1_Spine2/Character1_RightShoulder/Character1_RightArm/Character1_RightForeArm/Character1_RightHand/Character1_RightHandMiddle1/Character1_RightHandMiddle2
    m_Weight: 1
  - m_Path: Character1_Reference/Character1_Hips/Character1_Spine/Character1_Spine1/Character1_Spine2/Character1_RightShoulder/Character1_RightArm/Character1_RightForeArm/Character1_RightHand/Character1_RightHandMiddle1/Character1_RightHandMiddle2/Character1_RightHandMiddle3
    m_Weight: 1
  - m_Path: Character1_Reference/Character1_Hips/Character1_Spine/Character1_Spine1/Character1_Spine2/Character1_RightShoulder/Character1_RightArm/Character1_RightForeArm/Character1_RightHand/Character1_RightHandMiddle1/Character1_RightHandMiddle2/Character1_RightHandMiddle3/Character1_RightHandMiddle4
    m_Weight: 1
  - m_Path: Character1_Reference/Character1_Hips/Character1_Spine/Character1_Spine1/Character1_Spine2/Character1_RightShoulder/Character1_RightArm/Character1_RightForeArm/Character1_RightHand/Character1_RightHandPinky1
    m_Weight: 1
  - m_Path: Character1_Reference/Character1_Hips/Character1_Spine/Character1_Spine1/Character1_Spine2/Character1_RightShoulder/Character1_RightArm/Character1_RightForeArm/Character1_RightHand/Character1_RightHandPinky1/Character1_RightHandPinky2
    m_Weight: 1
  - m_Path: Character1_Reference/Character1_Hips/Character1_Spine/Character1_Spine1/Character1_Spine2/Character1_RightShoulder/Character1_RightArm/Character1_RightForeArm/Character1_RightHand/Character1_RightHandPinky1/Character1_RightHandPinky2/Character1_RightHandPinky3
    m_Weight: 1
  - m_Path: Character1_Reference/Character1_Hips/Character1_Spine/Character1_Spine1/Character1_Spine2/Character1_RightShoulder/Character1_RightArm/Character1_RightForeArm/Character1_RightHand/Character1_RightHandPinky1/Character1_RightHandPinky2/Character1_RightHandPinky3/Character1_RightHandPinky4
    m_Weight: 1
  - m_Path: Character1_Reference/Character1_Hips/Character1_Spine/Character1_Spine1/Character1_Spine2/Character1_RightShoulder/Character1_RightArm/Character1_RightForeArm/Character1_RightHand/Character1_RightHandRing1
    m_Weight: 1
  - m_Path: Character1_Reference/Character1_Hips/Character1_Spine/Character1_Spine1/Character1_Spine2/Character1_RightShoulder/Character1_RightArm/Character1_RightForeArm/Character1_RightHand/Character1_RightHandRing1/Character1_RightHandRing2
    m_Weight: 1
  - m_Path: Character1_Reference/Character1_Hips/Character1_Spine/Character1_Spine1/Character1_Spine2/Character1_RightShoulder/Character1_RightArm/Character1_RightForeArm/Character1_RightHand/Character1_RightHandRing1/Character1_RightHandRing2/Character1_RightHandRing3
    m_Weight: 1
  - m_Path: Character1_Reference/Character1_Hips/Character1_Spine/Character1_Spine1/Character1_Spine2/Character1_RightShoulder/Character1_RightArm/Character1_RightForeArm/Character1_RightHand/Character1_RightHandRing1/Character1_RightHandRing2/Character1_RightHandRing3/Character1_RightHandRing4
    m_Weight: 1
  - m_Path: Character1_Reference/Character1_Hips/Character1_Spine/Character1_Spine1/Character1_Spine2/Character1_RightShoulder/Character1_RightArm/Character1_RightForeArm/Character1_RightHand/Character1_RightHandThumb1
    m_Weight: 1
  - m_Path: Character1_Reference/Character1_Hips/Character1_Spine/Character1_Spine1/Character1_Spine2/Character1_RightShoulder/Character1_RightArm/Character1_RightForeArm/Character1_RightHand/Character1_RightHandThumb1/Character1_RightHandThumb2
    m_Weight: 1
  - m_Path: Character1_Reference/Character1_Hips/Character1_Spine/Character1_Spine1/Character1_Spine2/Character1_RightShoulder/Character1_RightArm/Character1_RightForeArm/Character1_RightHand/Character1_RightHandThumb1/Character1_RightHandThumb2/Character1_RightHandThumb3
    m_Weight: 1
  - m_Path: Character1_Reference/Character1_Hips/Character1_Spine/Character1_Spine1/Character1_Spine2/Character1_RightShoulder/Character1_RightArm/Character1_RightForeArm/Character1_RightHand/Character1_RightHandThumb1/Character1_RightHandThumb2/Character1_RightHandThumb3/Character1_RightHandThumb4
    m_Weight: 1
