%YAML 1.1
%TAG !u! tag:unity3d.com,2011:
--- !u!1 &3517485715441336979
GameObject:
  m_ObjectHideFlags: 0
  m_CorrespondingSourceObject: {fileID: 0}
  m_PrefabInstance: {fileID: 0}
  m_PrefabAsset: {fileID: 0}
  serializedVersion: 6
  m_Component:
  - component: {fileID: 7903559307096471677}
  m_Layer: 0
  m_Name: teleporter_prefab
  m_TagString: Untagged
  m_Icon: {fileID: 0}
  m_NavMeshLayer: 0
  m_StaticEditorFlags: 0
  m_IsActive: 1
--- !u!4 &7903559307096471677
Transform:
  m_ObjectHideFlags: 0
  m_CorrespondingSourceObject: {fileID: 0}
  m_PrefabInstance: {fileID: 0}
  m_PrefabAsset: {fileID: 0}
  m_GameObject: {fileID: 3517485715441336979}
  m_LocalRotation: {x: -0, y: -0, z: -0, w: 1}
  m_LocalPosition: {x: 0, y: 0, z: 0}
  m_LocalScale: {x: 1, y: 1, z: 1}
  m_Children:
  - {fileID: 4591346935747935518}
  m_Father: {fileID: 0}
  m_RootOrder: 0
  m_LocalEulerAnglesHint: {x: 0, y: 0, z: 0}
--- !u!1001 &8848739257214096900
PrefabInstance:
  m_ObjectHideFlags: 0
  serializedVersion: 2
  m_Modification:
    m_TransformParent: {fileID: 7903559307096471677}
    m_Modifications:
    - target: {fileID: -927199367670048503, guid: 0040b9296aa3c40498bad567ae1b4078,
        type: 3}
      propertyPath: m_Name
      value: teleporter_model
      objectReference: {fileID: 0}
    - target: {fileID: -4216859302048453862, guid: 0040b9296aa3c40498bad567ae1b4078,
        type: 3}
      propertyPath: m_LocalPosition.x
      value: 0
      objectReference: {fileID: 0}
    - target: {fileID: -4216859302048453862, guid: 0040b9296aa3c40498bad567ae1b4078,
        type: 3}
      propertyPath: m_LocalPosition.y
      value: 0
      objectReference: {fileID: 0}
    - target: {fileID: -4216859302048453862, guid: 0040b9296aa3c40498bad567ae1b4078,
        type: 3}
      propertyPath: m_LocalPosition.z
      value: 0
      objectReference: {fileID: 0}
    - target: {fileID: -4216859302048453862, guid: 0040b9296aa3c40498bad567ae1b4078,
        type: 3}
      propertyPath: m_LocalRotation.x
      value: -0
      objectReference: {fileID: 0}
    - target: {fileID: -4216859302048453862, guid: 0040b9296aa3c40498bad567ae1b4078,
        type: 3}
      propertyPath: m_LocalRotation.y
      value: -0
      objectReference: {fileID: 0}
    - target: {fileID: -4216859302048453862, guid: 0040b9296aa3c40498bad567ae1b4078,
        type: 3}
      propertyPath: m_LocalRotation.z
      value: -0
      objectReference: {fileID: 0}
    - target: {fileID: -4216859302048453862, guid: 0040b9296aa3c40498bad567ae1b4078,
        type: 3}
      propertyPath: m_LocalRotation.w
      value: 1
      objectReference: {fileID: 0}
    - target: {fileID: -4216859302048453862, guid: 0040b9296aa3c40498bad567ae1b4078,
        type: 3}
      propertyPath: m_RootOrder
      value: 0
      objectReference: {fileID: 0}
    - target: {fileID: -4216859302048453862, guid: 0040b9296aa3c40498bad567ae1b4078,
        type: 3}
      propertyPath: m_LocalEulerAnglesHint.x
      value: 0
      objectReference: {fileID: 0}
    - target: {fileID: -4216859302048453862, guid: 0040b9296aa3c40498bad567ae1b4078,
        type: 3}
      propertyPath: m_LocalEulerAnglesHint.y
      value: 0
      objectReference: {fileID: 0}
    - target: {fileID: -4216859302048453862, guid: 0040b9296aa3c40498bad567ae1b4078,
        type: 3}
      propertyPath: m_LocalEulerAnglesHint.z
      value: 0
      objectReference: {fileID: 0}
    - target: {fileID: -4216859302048453862, guid: 0040b9296aa3c40498bad567ae1b4078,
        type: 3}
      propertyPath: m_LocalScale.x
      value: 50
      objectReference: {fileID: 0}
    - target: {fileID: -4216859302048453862, guid: 0040b9296aa3c40498bad567ae1b4078,
        type: 3}
      propertyPath: m_LocalScale.y
      value: 50
      objectReference: {fileID: 0}
    - target: {fileID: -4216859302048453862, guid: 0040b9296aa3c40498bad567ae1b4078,
        type: 3}
      propertyPath: m_LocalScale.z
      value: 50
      objectReference: {fileID: 0}
    - target: {fileID: 6413486020335025233, guid: 0040b9296aa3c40498bad567ae1b4078,
        type: 3}
      propertyPath: m_Materials.Array.data[0]
      value: 
      objectReference: {fileID: 2100000, guid: e41d0da8543b0694e885d8c9f971ca4a, type: 2}
    m_RemovedComponents: []
  m_SourcePrefab: {fileID: 100100000, guid: 0040b9296aa3c40498bad567ae1b4078, type: 3}
--- !u!4 &4591346935747935518 stripped
Transform:
  m_CorrespondingSourceObject: {fileID: -4216859302048453862, guid: 0040b9296aa3c40498bad567ae1b4078,
    type: 3}
  m_PrefabInstance: {fileID: 8848739257214096900}
  m_PrefabAsset: {fileID: 0}
