%YAML 1.1
%TAG !u! tag:unity3d.com,2011:
--- !u!114 &11400000
MonoBehaviour:
  m_ObjectHideFlags: 0
  m_CorrespondingSourceObject: {fileID: 0}
  m_PrefabInstance: {fileID: 0}
  m_PrefabAsset: {fileID: 0}
  m_GameObject: {fileID: 0}
  m_Enabled: 1
  m_EditorHideFlags: 0
  m_Script: {fileID: 11500000, guid: f6579b35685fd3440bc9093304f030cd, type: 3}
  m_Name: Taurush_Attack
  m_EditorClassIdentifier: 
  type: 304
  clip: {fileID: 8300000, guid: f7bdbb45355718a4e88cd4c69b46fb1a, type: 3}
  volume: 1
  loop: 0
