%YAML 1.1
%TAG !u! tag:unity3d.com,2011:
--- !u!208 &3530095614077421345
NavMeshObstacle:
  m_ObjectHideFlags: 0
  m_CorrespondingSourceObject: {fileID: 0}
  m_PrefabInstance: {fileID: 0}
  m_PrefabAsset: {fileID: 0}
  m_GameObject: {fileID: 5347031879914277781}
  m_Enabled: 1
  serializedVersion: 3
  m_Shape: 1
  m_Extents: {x: 0.012, y: 0.017, z: 0.012}
  m_MoveThreshold: 0.1
  m_Carve: 0
  m_CarveOnlyStationary: 1
  m_Center: {x: 0.001, y: -0.007, z: -0.001}
  m_TimeToStationary: 0.5
--- !u!65 &6987333852909094553
BoxCollider:
  m_ObjectHideFlags: 0
  m_CorrespondingSourceObject: {fileID: 0}
  m_PrefabInstance: {fileID: 0}
  m_PrefabAsset: {fileID: 0}
  m_GameObject: {fileID: 5347031879914277781}
  m_Material: {fileID: 0}
  m_IsTrigger: 0
  m_Enabled: 1
  serializedVersion: 2
  m_Size: {x: 0.024289688, y: 0.03377844, z: 0.023782467}
  m_Center: {x: 0.0007555731, y: -0.007272385, z: -0.0013067726}
--- !u!1 &5981652751180164387
GameObject:
  m_ObjectHideFlags: 0
  m_CorrespondingSourceObject: {fileID: 0}
  m_PrefabInstance: {fileID: 0}
  m_PrefabAsset: {fileID: 0}
  serializedVersion: 6
  m_Component:
  - component: {fileID: 8647069868899775060}
  m_Layer: 0
  m_Name: grail_electric_prefab
  m_TagString: Untagged
  m_Icon: {fileID: 0}
  m_NavMeshLayer: 0
  m_StaticEditorFlags: 0
  m_IsActive: 1
--- !u!4 &8647069868899775060
Transform:
  m_ObjectHideFlags: 0
  m_CorrespondingSourceObject: {fileID: 0}
  m_PrefabInstance: {fileID: 0}
  m_PrefabAsset: {fileID: 0}
  m_GameObject: {fileID: 5981652751180164387}
  m_LocalRotation: {x: -0, y: -0, z: -0, w: 1}
  m_LocalPosition: {x: 0, y: 0, z: 0}
  m_LocalScale: {x: 1, y: 1, z: 1}
  m_Children:
  - {fileID: 8966421610419206534}
  m_Father: {fileID: 0}
  m_RootOrder: 0
  m_LocalEulerAnglesHint: {x: 0, y: 0, z: 0}
--- !u!1001 &4113356821483590300
PrefabInstance:
  m_ObjectHideFlags: 0
  serializedVersion: 2
  m_Modification:
    m_TransformParent: {fileID: 8647069868899775060}
    m_Modifications:
    - target: {fileID: -927199367670048503, guid: a1f682104d1c9c445a69cd9a36d0c0c7,
        type: 3}
      propertyPath: m_Name
      value: grail_electric_model
      objectReference: {fileID: 0}
    - target: {fileID: -4216859302048453862, guid: a1f682104d1c9c445a69cd9a36d0c0c7,
        type: 3}
      propertyPath: m_LocalPosition.x
      value: 0
      objectReference: {fileID: 0}
    - target: {fileID: -4216859302048453862, guid: a1f682104d1c9c445a69cd9a36d0c0c7,
        type: 3}
      propertyPath: m_LocalPosition.y
      value: 0.531555
      objectReference: {fileID: 0}
    - target: {fileID: -4216859302048453862, guid: a1f682104d1c9c445a69cd9a36d0c0c7,
        type: 3}
      propertyPath: m_LocalPosition.z
      value: 0
      objectReference: {fileID: 0}
    - target: {fileID: -4216859302048453862, guid: a1f682104d1c9c445a69cd9a36d0c0c7,
        type: 3}
      propertyPath: m_LocalRotation.x
      value: -0
      objectReference: {fileID: 0}
    - target: {fileID: -4216859302048453862, guid: a1f682104d1c9c445a69cd9a36d0c0c7,
        type: 3}
      propertyPath: m_LocalRotation.y
      value: -0
      objectReference: {fileID: 0}
    - target: {fileID: -4216859302048453862, guid: a1f682104d1c9c445a69cd9a36d0c0c7,
        type: 3}
      propertyPath: m_LocalRotation.z
      value: -0
      objectReference: {fileID: 0}
    - target: {fileID: -4216859302048453862, guid: a1f682104d1c9c445a69cd9a36d0c0c7,
        type: 3}
      propertyPath: m_LocalRotation.w
      value: 1
      objectReference: {fileID: 0}
    - target: {fileID: -4216859302048453862, guid: a1f682104d1c9c445a69cd9a36d0c0c7,
        type: 3}
      propertyPath: m_RootOrder
      value: 0
      objectReference: {fileID: 0}
    - target: {fileID: -4216859302048453862, guid: a1f682104d1c9c445a69cd9a36d0c0c7,
        type: 3}
      propertyPath: m_LocalEulerAnglesHint.x
      value: 0
      objectReference: {fileID: 0}
    - target: {fileID: -4216859302048453862, guid: a1f682104d1c9c445a69cd9a36d0c0c7,
        type: 3}
      propertyPath: m_LocalEulerAnglesHint.y
      value: 0
      objectReference: {fileID: 0}
    - target: {fileID: -4216859302048453862, guid: a1f682104d1c9c445a69cd9a36d0c0c7,
        type: 3}
      propertyPath: m_LocalEulerAnglesHint.z
      value: 0
      objectReference: {fileID: 0}
    - target: {fileID: -4216859302048453862, guid: a1f682104d1c9c445a69cd9a36d0c0c7,
        type: 3}
      propertyPath: m_LocalScale.x
      value: 22
      objectReference: {fileID: 0}
    - target: {fileID: -4216859302048453862, guid: a1f682104d1c9c445a69cd9a36d0c0c7,
        type: 3}
      propertyPath: m_LocalScale.y
      value: 22
      objectReference: {fileID: 0}
    - target: {fileID: -4216859302048453862, guid: a1f682104d1c9c445a69cd9a36d0c0c7,
        type: 3}
      propertyPath: m_LocalScale.z
      value: 22
      objectReference: {fileID: 0}
    - target: {fileID: -1504981713932161579, guid: a1f682104d1c9c445a69cd9a36d0c0c7,
        type: 3}
      propertyPath: m_Materials.Array.data[0]
      value: 
      objectReference: {fileID: 2100000, guid: 33ea02fcffdcad34f97b296fab44eab2, type: 2}
    m_RemovedComponents: []
  m_SourcePrefab: {fileID: 100100000, guid: a1f682104d1c9c445a69cd9a36d0c0c7, type: 3}
--- !u!1 &5347031879914277781 stripped
GameObject:
  m_CorrespondingSourceObject: {fileID: -927199367670048503, guid: a1f682104d1c9c445a69cd9a36d0c0c7,
    type: 3}
  m_PrefabInstance: {fileID: 4113356821483590300}
  m_PrefabAsset: {fileID: 0}
--- !u!4 &8966421610419206534 stripped
Transform:
  m_CorrespondingSourceObject: {fileID: -4216859302048453862, guid: a1f682104d1c9c445a69cd9a36d0c0c7,
    type: 3}
  m_PrefabInstance: {fileID: 4113356821483590300}
  m_PrefabAsset: {fileID: 0}
